top_test.vcd
$date
	Thu Apr  6 04:37:50 2017
$end
$version
	Icarus Verilog
$end
$timescale
	1ps
$end
$scope module test $end
$scope module top0 $end
$var wire 4 ! alu_op [3:0] $end
$var wire 17 " alu_out [16:0] $end
$var wire 1 # clk $end
$var wire 17 $ dec_data [16:0] $end
$var wire 5 % dst [4:0] $end
$var wire 17 & mem_data [16:0] $end
$var wire 1 ' mem_we $end
$var wire 16 ( op [15:0] $end
$var wire 8 ) pc_in [7:0] $end
$var wire 8 * pc_out [7:0] $end
$var wire 1 + pc_we $end
$var wire 17 , reg_data0 [16:0] $end
$var wire 17 - reg_data1 [16:0] $end
$var wire 1 . reg_we $end
$var wire 1 / rst_n $end
$var wire 1 0 sel1 $end
$var wire 17 1 sel1_out [16:0] $end
$var wire 1 2 sel2 $end
$var wire 17 3 sel2_out [16:0] $end
$var wire 5 4 src0 [4:0] $end
$var wire 5 5 src1 [4:0] $end
$var wire 1 6 zf $end
$var wire 1 7 zf_out $end
$scope module s1 $end
$var wire 17 8 in0 [16:0] $end
$var wire 17 9 in1 [16:0] $end
$var wire 1 0 sel $end
$var reg 17 : out [16:0] $end
$upscope $end
$scope module s2 $end
$var wire 17 ; in0 [16:0] $end
$var wire 17 < in1 [16:0] $end
$var wire 1 2 sel $end
$var reg 17 = out [16:0] $end
$upscope $end
$scope module r0 $end
$var wire 1 # clk $end
$var wire 17 > data [16:0] $end
$var wire 17 ? data0 [16:0] $end
$var wire 17 @ data1 [16:0] $end
$var wire 5 A dst [4:0] $end
$var wire 1 / rst_n $end
$var wire 5 B src0 [4:0] $end
$var wire 5 C src1 [4:0] $end
$var wire 1 . we $end
$upscope $end
$scope module a0 $end
$var wire 17 D in0 [16:0] $end
$var wire 17 E in1 [16:0] $end
$var wire 4 F op [3:0] $end
$var reg 17 G out [16:0] $end
$var reg 1 H zf $end
$upscope $end
$scope module mem0 $end
$var wire 17 I addr [16:0] $end
$var wire 1 # clk $end
$var wire 17 J in [16:0] $end
$var wire 8 K mem0 [7:0] $end
$var wire 8 L mem1 [7:0] $end
$var wire 8 M mem2 [7:0] $end
$var wire 8 N mem3 [7:0] $end
$var wire 8 O mem4 [7:0] $end
$var wire 8 P mem5 [7:0] $end
$var wire 8 Q mem6 [7:0] $end
$var wire 8 R mem7 [7:0] $end
$var wire 17 S out [16:0] $end
$var wire 1 / rst_n $end
$var wire 1 ' we $end
$var integer 32 T i [31:0] $end
$upscope $end
$scope module pc0 $end
$var wire 1 # clk $end
$var wire 8 U pc_in [7:0] $end
$var wire 1 / rst_n $end
$var wire 1 + we $end
$var reg 8 V pc_out [7:0] $end
$upscope $end
$scope module imem1 $end
$var wire 8 W pc [7:0] $end
$var reg 16 X op [15:0] $end
$upscope $end
$scope module zf0 $end
$var wire 1 # clk $end
$var wire 1 / rst_n $end
$var wire 1 6 zf_in $end
$var reg 1 Y zf_out $end
$upscope $end
$scope module dec1 $end
$var wire 16 Z op [15:0] $end
$var wire 1 7 zf $end
$var reg 4 [ alu_op [3:0] $end
$var reg 17 \ data [16:0] $end
$var reg 5 ] dst [4:0] $end
$var reg 1 ^ mem_we $end
$var reg 8 _ pc_in [7:0] $end
$var reg 1 ` pc_we $end
$var reg 1 a reg_we $end
$var reg 1 b sel1 $end
$var reg 1 c sel2 $end
$var reg 5 d src0 [4:0] $end
$var reg 5 e src1 [4:0] $end
$upscope $end
$upscope $end
$upscope $end
$enddefinitions $end
#0
$dumpvars
bx e
bx d
xc
xb
xa
x`
bx _
x^
bx ]
bx \
bx [
bx Z
xY
bx X
bx W
bx V
bx U
bx T
bx S
bz R
bz Q
bz P
bz O
bz N
bz M
bz L
bz K
bx J
bx I
xH
bx G
bx F
bx E
bx D
bx C
bx B
bx A
bx @
bx ?
bx >
bx =
bx <
bx ;
bx :
bx 9
bx 8
x7
x6
bx 5
bx 4
bx 3
x2
bx 1
x0
0/
x.
bx -
bx ,
x+
bx *
bx )
bx (
x'
bx &
bx %
bx $
0#
bx "
bx !
$end
#50
b1 =
b1 3
b1 >
0H
06
b1 G
b1 "
b1 ;
b1 J
b1 :
b1 1
b1 D
0^
0'
b0xx \
b0xx $
b0xx 8
0c
02
1b
10
1a
1.
b0 _
b0 )
b0 U
b0 d
b1 ,
b1 9
b1 ?
b0 4
b0 B
b0 e
b0 &
b0 <
b0 S
b1 -
b1 @
b1 E
b1 I
b0 5
b0 C
b10010 ]
b10010 %
b10010 A
b10 [
b10 !
b10 F
0`
0+
b101001000000xx X
b101001000000xx (
b101001000000xx Z
0Y
07
b0 V
b0 *
b0 W
b0 R
b0 Q
b0 P
b0 O
b0 N
b0 M
b0 L
b0 K
b100000001 T
1#
#100
0#
#150
b10 =
b10 3
b10 >
b10 G
b10 "
b10 ;
b10 J
b1 e
b10 -
b10 @
b10 E
b10 I
b1 5
b1 C
b10011 ]
b10011 %
b10011 A
b101001100001xx (
b101001100001xx Z
b101001100001xx X
b1 V
b1 *
b1 W
1#
1/
#200
0#
#250
b11 =
b11 3
b11 >
b11 G
b11 "
b11 ;
b11 J
b10 e
b11 -
b11 @
b11 E
b11 I
b10 5
b10 C
b10100 ]
b10100 %
b10100 A
b101010000010xx (
b101010000010xx Z
b101010000010xx X
b10 V
b10 *
b10 W
1#
#300
0#
#350
b100 =
b100 3
b100 >
b100 G
b100 "
b100 ;
b100 J
b11 e
b100 -
b100 @
b100 E
b100 I
b11 5
b11 C
b10101 ]
b10101 %
b10101 A
b101010100011xx (
b101010100011xx Z
b101010100011xx X
b11 V
b11 *
b11 W
1#
#400
0#
#450
b0 =
b0 3
b0 >
b0 G
b0 "
b0 ;
b0 J
b100 e
b0 -
b0 @
b0 E
b0 I
b100 5
b100 C
b10110 ]
b10110 %
b10110 A
b101011000100xx (
b101011000100xx Z
b101011000100xx X
b100 V
b100 *
b100 W
1#
#500
0#
#550
b101 =
b101 3
b101 >
b101 G
b101 "
b101 ;
b101 J
b101 e
b101 -
b101 @
b101 E
b101 I
b101 5
b101 C
b10111 ]
b10111 %
b10111 A
b101011100101xx (
b101011100101xx Z
b101011100101xx X
b101 V
b101 *
b101 W
1#
#600
0#
#650
b111 =
b111 3
b111 >
b111 G
b111 "
b111 ;
b111 J
b110 e
b111 -
b111 @
b111 E
b111 I
b110 5
b110 C
b11000 ]
b11000 %
b11000 A
b101100000110xx (
b101100000110xx Z
b101100000110xx X
b110 V
b110 *
b110 W
1#
#700
0#
#750
b1000 =
b1000 3
b1000 >
b1000 G
b1000 "
b1000 ;
b1000 J
b111 e
b1000 -
b1000 @
b1000 E
b1000 I
b111 5
b111 C
b11001 ]
b11001 %
b11001 A
b101100100111xx (
b101100100111xx Z
b101100100111xx X
b111 V
b111 *
b111 W
1#
#800
0#
#850
b110 =
b110 3
b110 >
b110 G
b110 "
b110 ;
b110 J
b1000 e
b110 -
b110 @
b110 E
b110 I
b1000 5
b1000 C
b11010 ]
b11010 %
b11010 A
b101101001000xx (
b101101001000xx Z
b101101001000xx X
b1000 V
b1000 *
b1000 W
1#
#900
0#
#950
b0 =
b0 3
b0 >
b0 G
b0 "
b0 ;
b0 J
b11011 e
b0 -
b0 @
b0 E
b0 I
b11011 5
b11011 C
b11011 ]
b11011 %
b11011 A
b11 [
b11 !
b11 F
b111101111011xx X
b111101111011xx (
b111101111011xx Z
b1001 V
b1001 *
b1001 W
1#
#1000
0#
#1050
b100000000000000 =
b100000000000000 3
b100000000000000 >
b100000000000000 G
b100000000000000 "
b100000000000000 ;
b100000000000000 J
b0 :
b0 1
b0 D
b0 \
b0 $
b0 8
0b
00
b1 [
b1 !
b1 F
b11101111011xx X
b11101111011xx (
b11101111011xx Z
b1010 V
b1010 *
b1010 W
1#
#1100
0#
#1150
b111 :
b111 1
b111 D
b111 \
b111 $
b111 8
0a
0.
b0 ]
b0 %
b0 A
b110 [
b110 !
b110 F
b1000000000000000 =
b1000000000000000 3
b1000000000000000 >
b1000000000000000 G
b1000000000000000 "
b1000000000000000 ;
b1000000000000000 J
b11011011111xxxx X
b11011011111xxxx (
b11011011111xxxx Z
bx &
bx <
bx S
b100000000000000 -
b100000000000000 @
b100000000000000 E
b100000000000000 I
b1011 V
b1011 *
b1011 W
1#
#1200
0#
#1250
b0 =
b0 3
b0 >
b0 G
b0 "
b0 ;
b0 J
b0 :
b0 1
b0 D
b0 \
b0 $
b0 8
b11000101 _
b11000101 )
b11000101 U
b0 e
b0 &
b0 <
b0 S
b1 -
b1 @
b1 E
b1 I
b0 5
b0 C
b1111 [
b1111 !
b1111 F
b1111xxxx11000101 X
b1111xxxx11000101 (
b1111xxxx11000101 Z
b1100 V
b1100 *
b1100 W
1#
#1300
0#
#1350
b1 :
b1 1
b1 D
1b
10
1a
1.
b0 _
b0 )
b0 U
b11011 e
bx &
bx <
bx S
b100000000000000 -
b100000000000000 @
b100000000000000 E
b100000000000000 I
b11011 5
b11011 C
b11100 ]
b11100 %
b11100 A
b111 [
b111 !
b111 F
b1111110011011xx X
b1111110011011xx (
b1111110011011xx Z
b1101 V
b1101 *
b1101 W
1#
#1400
0#
#1450
1H
16
b0 :
b0 1
b0 D
0b
00
0a
0.
b11100 e
b0 &
b0 <
b0 S
b0 -
b0 @
b0 E
b0 I
b11100 5
b11100 C
b0 ]
b0 %
b0 A
b101 [
b101 !
b101 F
b101xxxxx1110000 X
b101xxxxx1110000 (
b101xxxxx1110000 Z
b1110 V
b1110 *
b1110 W
1#
#1500
0#
#1550
0H
06
b10110 _
b10110 )
b10110 U
b0 e
b1 -
b1 @
b1 E
b1 I
b0 5
b0 C
b1111 [
b1111 !
b1111 F
1`
1+
b1111xxxx00010110 X
b1111xxxx00010110 (
b1111xxxx00010110 Z
1Y
17
b1111 V
b1111 *
b1111 W
1#
#1600
0#
#1650
1b
10
b0 _
b0 )
b0 U
b10001 d
b0 ,
b0 9
b0 ?
b10001 4
b10001 B
b10101 e
b100 -
b100 @
b100 E
b100 I
b10101 5
b10101 C
b100 [
b100 !
b100 F
0`
0+
b100xx1010110001 X
b100xx1010110001 (
b100xx1010110001 Z
0Y
07
b10110 V
b10110 *
b10110 W
1#
#1700
0#
#1750
0b
00
b1001010 _
b1001010 )
b1001010 U
b0 d
b1 ,
b1 9
b1 ?
b0 4
b0 B
b0 e
b1 -
b1 @
b1 E
b1 I
b0 5
b0 C
b1111 [
b1111 !
b1111 F
b1111xxxx01001010 X
b1111xxxx01001010 (
b1111xxxx01001010 Z
b10111 V
b10111 *
b10111 W
1#
#1800
0#
#1850
1H
16
1b
10
b0 _
b0 )
b0 U
b10001 d
b0 ,
b0 9
b0 ?
b10001 4
b10001 B
b10110 e
b0 -
b0 @
b0 E
b0 I
b10110 5
b10110 C
b100 [
b100 !
b100 F
b100xx1011010001 X
b100xx1011010001 (
b100xx1011010001 Z
b11000 V
b11000 *
b11000 W
1#
#1900
0#
#1950
0H
06
0b
00
1`
1+
b1001110 _
b1001110 )
b1001110 U
b0 d
b1 ,
b1 9
b1 ?
b0 4
b0 B
b0 e
b1 -
b1 @
b1 E
b1 I
b0 5
b0 C
b1111 [
b1111 !
b1111 F
b1111xxxx01001110 X
b1111xxxx01001110 (
b1111xxxx01001110 Z
1Y
17
b11001 V
b11001 *
b11001 W
1#
#2000
0#
#2050
1c
12
1a
1.
b0 _
b0 )
b0 U
b10110 e
b0 -
b0 @
b0 E
b0 I
b10110 5
b10110 C
b11110 ]
b11110 %
b11110 A
b1000 [
b1000 !
b1000 F
0`
0+
b10001111010110xx X
b10001111010110xx (
b10001111010110xx Z
0Y
07
b1001110 V
b1001110 *
b1001110 W
1#
#2100
0#
#2150
b10 =
b10 3
b10 >
b10 G
b10 "
b10 ;
b10 J
b1 :
b1 1
b1 D
b0xx \
b0xx $
b0xx 8
0c
02
1b
10
b10011 e
b10 -
b10 @
b10 E
b10 I
b10011 5
b10011 C
b10110 ]
b10110 %
b10110 A
b10 [
b10 !
b10 F
b101011010011xx X
b101011010011xx (
b101011010011xx Z
b1001111 V
b1001111 *
b1001111 W
1#
#2200
0#
#2250
b0 =
b0 3
b0 >
b0 G
b0 "
b0 ;
b0 J
b11110 e
b0 -
b0 @
b0 E
b0 I
b11110 5
b11110 C
b10011 ]
b10011 %
b10011 A
b101001111110xx (
b101001111110xx Z
b101001111110xx X
b1010000 V
b1010000 *
b1010000 W
1#
#2300
0#
#2350
b0 :
b0 1
b0 D
b0 \
b0 $
b0 8
0b
00
0a
0.
1`
1+
b10101010 _
b10101010 )
b10101010 U
b0 e
b1 -
b1 @
b1 E
b1 I
b0 5
b0 C
b0 ]
b0 %
b0 A
b1110 [
b1110 !
b1110 F
b1110xxxx10101010 X
b1110xxxx10101010 (
b1110xxxx10101010 Z
b1010001 V
b1010001 *
b1010001 W
1#
#2400
0#
#2450
1H
16
b1 :
b1 1
b1 D
1b
10
0`
0+
b0 _
b0 )
b0 U
b1001 d
b1001 4
b1001 B
b10010 e
b10010 5
b10010 C
b100 [
b100 !
b100 F
b100xx1001001001 X
b100xx1001001001 (
b100xx1001001001 Z
b10101010 V
b10101010 *
b10101010 W
1#
#2500
0#
#2550
0H
06
b0 :
b0 1
b0 D
0b
00
1`
1+
b10101101 _
b10101101 )
b10101101 U
b0 d
b0 4
b0 B
b0 e
b0 5
b0 C
b1111 [
b1111 !
b1111 F
b1111xxxx10101101 X
b1111xxxx10101101 (
b1111xxxx10101101 Z
1Y
17
b10101011 V
b10101011 *
b10101011 W
1#
#2600
0#
#2650
0H
06
b10 :
b10 1
b10 D
1b
10
b0 _
b0 )
b0 U
b1010 d
b10 ,
b10 9
b10 ?
b1010 4
b1010 B
b10011 e
b0 -
b0 @
b0 E
b0 I
b10011 5
b10011 C
b100 [
b100 !
b100 F
0`
0+
b100xx1001101010 X
b100xx1001101010 (
b100xx1001101010 Z
0Y
07
b10101101 V
b10101101 *
b10101101 W
1#
#2700
0#
#2750
b0 :
b0 1
b0 D
0b
00
b10110000 _
b10110000 )
b10110000 U
b0 d
b1 ,
b1 9
b1 ?
b0 4
b0 B
b0 e
b1 -
b1 @
b1 E
b1 I
b0 5
b0 C
b1111 [
b1111 !
b1111 F
b1111xxxx10110000 X
b1111xxxx10110000 (
b1111xxxx10110000 Z
b10101110 V
b10101110 *
b10101110 W
1#
#2800
0#
#2850
1`
1+
b1010 _
b1010 )
b1010 U
b1110 [
b1110 !
b1110 F
b1110xxxx00001010 X
b1110xxxx00001010 (
b1110xxxx00001010 Z
b10101111 V
b10101111 *
b10101111 W
1#
#2900
0#
#2950
b1000000000000000 =
b1000000000000000 3
b1000000000000000 >
b1000000000000000 G
b1000000000000000 "
b1000000000000000 ;
b1000000000000000 J
1a
1.
0`
0+
b0 _
b0 )
b0 U
b11011 e
bx &
bx <
bx S
b100000000000000 -
b100000000000000 @
b100000000000000 E
b100000000000000 I
b11011 5
b11011 C
b11011 ]
b11011 %
b11011 A
b1 [
b1 !
b1 F
b11101111011xx X
b11101111011xx (
b11101111011xx Z
b1010 V
b1010 *
b1010 W
1#
#3000
0#
#3050
b111 :
b111 1
b111 D
b111 \
b111 $
b111 8
0a
0.
b0 ]
b0 %
b0 A
b110 [
b110 !
b110 F
b1100000000000000 =
b1100000000000000 3
b1100000000000000 >
b1100000000000000 G
b1100000000000000 "
b1100000000000000 ;
b1100000000000000 J
b11011011111xxxx X
b11011011111xxxx (
b11011011111xxxx Z
b1000000000000000 -
b1000000000000000 @
b1000000000000000 E
b1000000000000000 I
b1011 V
b1011 *
b1011 W
1#
#3100
0#
#3150
b0 =
b0 3
b0 >
b0 G
b0 "
b0 ;
b0 J
b0 :
b0 1
b0 D
b0 \
b0 $
b0 8
b11000101 _
b11000101 )
b11000101 U
b0 e
b0 &
b0 <
b0 S
b1 -
b1 @
b1 E
b1 I
b0 5
b0 C
b1111 [
b1111 !
b1111 F
b1111xxxx11000101 X
b1111xxxx11000101 (
b1111xxxx11000101 Z
b1100 V
b1100 *
b1100 W
1#
#3200
0#
#3250
b1 :
b1 1
b1 D
1b
10
1a
1.
b0 _
b0 )
b0 U
b11011 e
bx &
bx <
bx S
b1000000000000000 -
b1000000000000000 @
b1000000000000000 E
b1000000000000000 I
b11011 5
b11011 C
b11100 ]
b11100 %
b11100 A
b111 [
b111 !
b111 F
b1111110011011xx X
b1111110011011xx (
b1111110011011xx Z
b1101 V
b1101 *
b1101 W
1#
#3300
0#
#3350
1H
16
b0 :
b0 1
b0 D
0b
00
0a
0.
b11100 e
b0 &
b0 <
b0 S
b0 -
b0 @
b0 E
b0 I
b11100 5
b11100 C
b0 ]
b0 %
b0 A
b101 [
b101 !
b101 F
b101xxxxx1110000 X
b101xxxxx1110000 (
b101xxxxx1110000 Z
b1110 V
b1110 *
b1110 W
1#
#3400
0#
#3450
0H
06
b10110 _
b10110 )
b10110 U
b0 e
b1 -
b1 @
b1 E
b1 I
b0 5
b0 C
b1111 [
b1111 !
b1111 F
1`
1+
b1111xxxx00010110 X
b1111xxxx00010110 (
b1111xxxx00010110 Z
1Y
17
b1111 V
b1111 *
b1111 W
1#
#3500
0#
#3550
1b
10
b0 _
b0 )
b0 U
b10001 d
b0 ,
b0 9
b0 ?
b10001 4
b10001 B
b10101 e
b100 -
b100 @
b100 E
b100 I
b10101 5
b10101 C
b100 [
b100 !
b100 F
0`
0+
b100xx1010110001 X
b100xx1010110001 (
b100xx1010110001 Z
0Y
07
b10110 V
b10110 *
b10110 W
1#
#3600
0#
#3650
0b
00
b1001010 _
b1001010 )
b1001010 U
b0 d
b1 ,
b1 9
b1 ?
b0 4
b0 B
b0 e
b1 -
b1 @
b1 E
b1 I
b0 5
b0 C
b1111 [
b1111 !
b1111 F
b1111xxxx01001010 X
b1111xxxx01001010 (
b1111xxxx01001010 Z
b10111 V
b10111 *
b10111 W
1#
#3700
0#
#3750
1b
10
b0 _
b0 )
b0 U
b10001 d
b0 ,
b0 9
b0 ?
b10001 4
b10001 B
b10110 e
b10 -
b10 @
b10 E
b10 I
b10110 5
b10110 C
b100 [
b100 !
b100 F
b100xx1011010001 X
b100xx1011010001 (
b100xx1011010001 Z
b11000 V
b11000 *
b11000 W
1#
#3800
0#
#3850
0b
00
b1001110 _
b1001110 )
b1001110 U
b0 d
b1 ,
b1 9
b1 ?
b0 4
b0 B
b0 e
b1 -
b1 @
b1 E
b1 I
b0 5
b0 C
b1111 [
b1111 !
b1111 F
b1111xxxx01001110 X
b1111xxxx01001110 (
b1111xxxx01001110 Z
b11001 V
b11001 *
b11001 W
1#
#3900
0#
#3950
1b
10
b0 _
b0 )
b0 U
b10001 d
b0 ,
b0 9
b0 ?
b10001 4
b10001 B
b10111 e
b101 -
b101 @
b101 E
b101 I
b10111 5
b10111 C
b100 [
b100 !
b100 F
b100xx1011110001 X
b100xx1011110001 (
b100xx1011110001 Z
b11010 V
b11010 *
b11010 W
1#
#4000
0#
#4050
0b
00
b1010010 _
b1010010 )
b1010010 U
b0 d
b1 ,
b1 9
b1 ?
b0 4
b0 B
b0 e
b1 -
b1 @
b1 E
b1 I
b0 5
b0 C
b1111 [
b1111 !
b1111 F
b1111xxxx01010010 X
b1111xxxx01010010 (
b1111xxxx01010010 Z
b11011 V
b11011 *
b11011 W
1#
#4100
0#
#4150
1b
10
b0 _
b0 )
b0 U
b10001 d
b0 ,
b0 9
b0 ?
b10001 4
b10001 B
b11000 e
b111 -
b111 @
b111 E
b111 I
b11000 5
b11000 C
b100 [
b100 !
b100 F
b100xx1100010001 X
b100xx1100010001 (
b100xx1100010001 Z
b11100 V
b11100 *
b11100 W
1#
#4200
0#
#4250
0b
00
b1010110 _
b1010110 )
b1010110 U
b0 d
b1 ,
b1 9
b1 ?
b0 4
b0 B
b0 e
b1 -
b1 @
b1 E
b1 I
b0 5
b0 C
b1111 [
b1111 !
b1111 F
b1111xxxx01010110 X
b1111xxxx01010110 (
b1111xxxx01010110 Z
b11101 V
b11101 *
b11101 W
1#
#4300
0#
#4350
1b
10
b0 _
b0 )
b0 U
b10001 d
b0 ,
b0 9
b0 ?
b10001 4
b10001 B
b11001 e
b1000 -
b1000 @
b1000 E
b1000 I
b11001 5
b11001 C
b100 [
b100 !
b100 F
b100xx1100110001 X
b100xx1100110001 (
b100xx1100110001 Z
b11110 V
b11110 *
b11110 W
1#
#4400
0#
#4450
0b
00
b1011010 _
b1011010 )
b1011010 U
b0 d
b1 ,
b1 9
b1 ?
b0 4
b0 B
b0 e
b1 -
b1 @
b1 E
b1 I
b0 5
b0 C
b1111 [
b1111 !
b1111 F
b1111xxxx01011010 X
b1111xxxx01011010 (
b1111xxxx01011010 Z
b11111 V
b11111 *
b11111 W
1#
#4500
0#
#4550
1b
10
b0 _
b0 )
b0 U
b10001 d
b0 ,
b0 9
b0 ?
b10001 4
b10001 B
b11010 e
b110 -
b110 @
b110 E
b110 I
b11010 5
b11010 C
b100 [
b100 !
b100 F
b100xx1101010001 X
b100xx1101010001 (
b100xx1101010001 Z
b100000 V
b100000 *
b100000 W
1#
#4600
0#
#4650
0b
00
b1011110 _
b1011110 )
b1011110 U
b0 d
b1 ,
b1 9
b1 ?
b0 4
b0 B
b0 e
b1 -
b1 @
b1 E
b1 I
b0 5
b0 C
b1111 [
b1111 !
b1111 F
b1111xxxx01011110 X
b1111xxxx01011110 (
b1111xxxx01011110 Z
b100001 V
b100001 *
b100001 W
1#
#4700
0#
#4750
1`
1+
b11000101 _
b11000101 )
b11000101 U
b1110 [
b1110 !
b1110 F
b1110xxxx11000101 X
b1110xxxx11000101 (
b1110xxxx11000101 Z
b100010 V
b100010 *
b100010 W
1#
#4800
0#
#4850
b1000000000000001 =
b1000000000000001 3
b1000000000000001 >
b1000000000000001 G
b1000000000000001 "
b1000000000000001 ;
b1000000000000001 J
1a
1.
0`
0+
b0 _
b0 )
b0 U
b11011 e
bx &
bx <
bx S
b1000000000000000 -
b1000000000000000 @
b1000000000000000 E
b1000000000000000 I
b11011 5
b11011 C
b11011 ]
b11011 %
b11011 A
b0 [
b0 !
b0 F
b1101111011xx X
b1101111011xx (
b1101111011xx Z
b11000101 V
b11000101 *
b11000101 W
1#
#4900
0#
#4950
0a
0.
1`
1+
b0 e
b0 &
b0 <
b0 S
b0 5
b0 C
b0 ]
b0 %
b0 A
b1110 [
b1110 !
b1110 F
b0 =
b0 3
b0 >
b0 G
b0 "
b0 ;
b0 J
b1110xxxx00000000 X
b1110xxxx00000000 (
b1110xxxx00000000 Z
b1 -
b1 @
b1 E
b1 I
b11000110 V
b11000110 *
b11000110 W
1#
#5000
0#
#5050
b1 =
b1 3
b1 >
b1 G
b1 "
b1 ;
b1 J
b1 :
b1 1
b1 D
b0xx \
b0xx $
b0xx 8
1b
10
1a
1.
0`
0+
b10010 ]
b10010 %
b10010 A
b10 [
b10 !
b10 F
b101001000000xx X
b101001000000xx (
b101001000000xx Z
b0 V
b0 *
b0 W
1#
#5100
0#
#5150
b10 =
b10 3
b10 >
b10 G
b10 "
b10 ;
b10 J
b1 e
b10 -
b10 @
b10 E
b10 I
b1 5
b1 C
b10011 ]
b10011 %
b10011 A
b101001100001xx (
b101001100001xx Z
b101001100001xx X
b1 V
b1 *
b1 W
1#
#5200
0#
#5250
b11 =
b11 3
b11 >
b11 G
b11 "
b11 ;
b11 J
b10 e
b11 -
b11 @
b11 E
b11 I
b10 5
b10 C
b10100 ]
b10100 %
b10100 A
b101010000010xx (
b101010000010xx Z
b101010000010xx X
b10 V
b10 *
b10 W
1#
#5300
0#
#5350
b100 =
b100 3
b100 >
b100 G
b100 "
b100 ;
b100 J
b11 e
b100 -
b100 @
b100 E
b100 I
b11 5
b11 C
b10101 ]
b10101 %
b10101 A
b101010100011xx (
b101010100011xx Z
b101010100011xx X
b11 V
b11 *
b11 W
1#
#5400
0#
#5450
b0 =
b0 3
b0 >
b0 G
b0 "
b0 ;
b0 J
b100 e
b0 -
b0 @
b0 E
b0 I
b100 5
b100 C
b10110 ]
b10110 %
b10110 A
b101011000100xx (
b101011000100xx Z
b101011000100xx X
b100 V
b100 *
b100 W
1#
#5500
0#
#5550
b101 =
b101 3
b101 >
b101 G
b101 "
b101 ;
b101 J
b101 e
b101 -
b101 @
b101 E
b101 I
b101 5
b101 C
b10111 ]
b10111 %
b10111 A
b101011100101xx (
b101011100101xx Z
b101011100101xx X
b101 V
b101 *
b101 W
1#
#5600
0#
#5650
b111 =
b111 3
b111 >
b111 G
b111 "
b111 ;
b111 J
b110 e
b111 -
b111 @
b111 E
b111 I
b110 5
b110 C
b11000 ]
b11000 %
b11000 A
b101100000110xx (
b101100000110xx Z
b101100000110xx X
b110 V
b110 *
b110 W
1#
#5700
0#
#5750
b1000 =
b1000 3
b1000 >
b1000 G
b1000 "
b1000 ;
b1000 J
b111 e
b1000 -
b1000 @
b1000 E
b1000 I
b111 5
b111 C
b11001 ]
b11001 %
b11001 A
b101100100111xx (
b101100100111xx Z
b101100100111xx X
b111 V
b111 *
b111 W
1#
#5800
0#
#5850
b110 =
b110 3
b110 >
b110 G
b110 "
b110 ;
b110 J
b1000 e
b110 -
b110 @
b110 E
b110 I
b1000 5
b1000 C
b11010 ]
b11010 %
b11010 A
b101101001000xx (
b101101001000xx Z
b101101001000xx X
b1000 V
b1000 *
b1000 W
1#
#5900
0#
#5950
b1 =
b1 3
b1 >
b1 G
b1 "
b1 ;
b1 J
b11011 e
bx &
bx <
bx S
b1000000000000001 -
b1000000000000001 @
b1000000000000001 E
b1000000000000001 I
b11011 5
b11011 C
b11011 ]
b11011 %
b11011 A
b11 [
b11 !
b11 F
b111101111011xx X
b111101111011xx (
b111101111011xx Z
b1001 V
b1001 *
b1001 W
1#
#6000
0#
#6050
b100000000000001 =
b100000000000001 3
b100000000000001 >
b100000000000001 G
b100000000000001 "
b100000000000001 ;
b100000000000001 J
b0 :
b0 1
b0 D
b0 \
b0 $
b0 8
0b
00
b1 [
b1 !
b1 F
b11101111011xx X
b11101111011xx (
b11101111011xx Z
b0 &
b0 <
b0 S
b1 -
b1 @
b1 E
b1 I
b1010 V
b1010 *
b1010 W
1#
#6100
0#
#6150
b111 :
b111 1
b111 D
b111 \
b111 $
b111 8
0a
0.
b0 ]
b0 %
b0 A
b110 [
b110 !
b110 F
b1000000000000001 =
b1000000000000001 3
b1000000000000001 >
b1000000000000001 G
b1000000000000001 "
b1000000000000001 ;
b1000000000000001 J
b11011011111xxxx X
b11011011111xxxx (
b11011011111xxxx Z
bx &
bx <
bx S
b100000000000001 -
b100000000000001 @
b100000000000001 E
b100000000000001 I
b1011 V
b1011 *
b1011 W
1#
#6200
0#
#6250
b0 =
b0 3
b0 >
b0 G
b0 "
b0 ;
b0 J
b0 :
b0 1
b0 D
b0 \
b0 $
b0 8
b11000101 _
b11000101 )
b11000101 U
b0 e
b0 &
b0 <
b0 S
b1 -
b1 @
b1 E
b1 I
b0 5
b0 C
b1111 [
b1111 !
b1111 F
b1111xxxx11000101 X
b1111xxxx11000101 (
b1111xxxx11000101 Z
b1100 V
b1100 *
b1100 W
1#
#6300
0#
#6350
b1000000000000000 =
b1000000000000000 3
b1000000000000000 >
b1000000000000000 G
b1000000000000000 "
b1000000000000000 ;
b1000000000000000 J
b1 :
b1 1
b1 D
1b
10
1a
1.
b0 _
b0 )
b0 U
b11011 e
bx &
bx <
bx S
b100000000000001 -
b100000000000001 @
b100000000000001 E
b100000000000001 I
b11011 5
b11011 C
b11100 ]
b11100 %
b11100 A
b111 [
b111 !
b111 F
b1111110011011xx X
b1111110011011xx (
b1111110011011xx Z
b1101 V
b1101 *
b1101 W
1#
#6400
0#
#6450
b0 :
b0 1
b0 D
0b
00
0a
0.
b11100 e
b1000000000000000 -
b1000000000000000 @
b1000000000000000 E
b1000000000000000 I
b11100 5
b11100 C
b0 ]
b0 %
b0 A
b101 [
b101 !
b101 F
b101xxxxx1110000 X
b101xxxxx1110000 (
b101xxxxx1110000 Z
b1110 V
b1110 *
b1110 W
1#
#6500
0#
#6550
b0 =
b0 3
b0 >
b0 G
b0 "
b0 ;
b0 J
b10110 _
b10110 )
b10110 U
b0 e
b0 &
b0 <
b0 S
b1 -
b1 @
b1 E
b1 I
b0 5
b0 C
b1111 [
b1111 !
b1111 F
b1111xxxx00010110 X
b1111xxxx00010110 (
b1111xxxx00010110 Z
b1111 V
b1111 *
b1111 W
1#
#6600
0#
#6650
1H
16
b1000000000000000 :
b1000000000000000 1
b1000000000000000 D
b1000000000000000 \
b1000000000000000 $
b1000000000000000 8
b0 _
b0 )
b0 U
b11100 e
bx &
bx <
bx S
b1000000000000000 -
b1000000000000000 @
b1000000000000000 E
b1000000000000000 I
b11100 5
b11100 C
b101 [
b101 !
b101 F
b101xxxxx1110001 X
b101xxxxx1110001 (
b101xxxxx1110001 Z
b10000 V
b10000 *
b10000 W
1#
#6700
0#
#6750
0H
06
b0 :
b0 1
b0 D
b0 \
b0 $
b0 8
b100011 _
b100011 )
b100011 U
b0 e
b0 &
b0 <
b0 S
b1 -
b1 @
b1 E
b1 I
b0 5
b0 C
b1111 [
b1111 !
b1111 F
1`
1+
b1111xxxx00100011 X
b1111xxxx00100011 (
b1111xxxx00100011 Z
1Y
17
b10001 V
b10001 *
b10001 W
1#
#6800
0#
#6850
1b
10
b0 _
b0 )
b0 U
b10001 d
b0 ,
b0 9
b0 ?
b10001 4
b10001 B
b10010 e
b10010 5
b10010 C
b100 [
b100 !
b100 F
0`
0+
b100xx1001010001 X
b100xx1001010001 (
b100xx1001010001 Z
0Y
07
b100011 V
b100011 *
b100011 W
1#
#6900
0#
