top_test.vcd
$date
	Thu Jul 13 01:38:03 2017
$end
$version
	Icarus Verilog
$end
$timescale
	1ps
$end
$scope module test $end
$scope module top0 $end
$var wire 5 ! alu_op [4:0] $end
$var wire 40 " alu_out [39:0] $end
$var wire 1 # clk $end
$var wire 40 $ dec_data [39:0] $end
$var wire 4 % dst [3:0] $end
$var wire 40 & mem_data [39:0] $end
$var wire 1 ' mem_we $end
$var wire 16 ( op [15:0] $end
$var wire 6 ) pc_in [5:0] $end
$var wire 6 * pc_out [5:0] $end
$var wire 1 + pc_we $end
$var wire 40 , reg_data0 [39:0] $end
$var wire 40 - reg_data1 [39:0] $end
$var wire 1 . reg_we $end
$var wire 1 / rst_n $end
$var wire 1 0 sel1 $end
$var wire 40 1 sel1_out [39:0] $end
$var wire 1 2 sel2 $end
$var wire 40 3 sel2_out [39:0] $end
$var wire 4 4 src0 [3:0] $end
$var wire 4 5 src1 [3:0] $end
$var wire 1 6 zf $end
$var wire 1 7 zf_out $end
$scope module s1 $end
$var wire 40 8 in0 [39:0] $end
$var wire 40 9 in1 [39:0] $end
$var wire 1 0 sel $end
$var reg 40 : out [39:0] $end
$upscope $end
$scope module s2 $end
$var wire 40 ; in0 [39:0] $end
$var wire 40 < in1 [39:0] $end
$var wire 1 2 sel $end
$var reg 40 = out [39:0] $end
$upscope $end
$scope module r0 $end
$var wire 1 # clk $end
$var wire 40 > data [39:0] $end
$var wire 40 ? data0 [39:0] $end
$var wire 40 @ data1 [39:0] $end
$var wire 4 A dst [3:0] $end
$var wire 1 / rst_n $end
$var wire 4 B src0 [3:0] $end
$var wire 4 C src1 [3:0] $end
$var wire 1 . we $end
$upscope $end
$scope module a0 $end
$var wire 40 D in0 [39:0] $end
$var wire 40 E in1 [39:0] $end
$var wire 5 F op [4:0] $end
$var reg 40 G out [39:0] $end
$var reg 1 H zf $end
$upscope $end
$scope module mem0 $end
$var wire 40 I addr [39:0] $end
$var wire 1 # clk $end
$var wire 40 J in [39:0] $end
$var wire 8 K mem0 [7:0] $end
$var wire 8 L mem1 [7:0] $end
$var wire 8 M mem2 [7:0] $end
$var wire 8 N mem3 [7:0] $end
$var wire 8 O mem4 [7:0] $end
$var wire 8 P mem5 [7:0] $end
$var wire 8 Q mem6 [7:0] $end
$var wire 8 R mem7 [7:0] $end
$var wire 40 S out [39:0] $end
$var wire 1 / rst_n $end
$var wire 1 ' we $end
$var integer 32 T i [31:0] $end
$upscope $end
$scope module pc0 $end
$var wire 1 # clk $end
$var wire 6 U pc_in [5:0] $end
$var wire 1 / rst_n $end
$var wire 1 + we $end
$var reg 6 V pc_out [5:0] $end
$upscope $end
$scope module imem $end
$var wire 6 W pc [5:0] $end
$var reg 16 X op [15:0] $end
$upscope $end
$scope module zf0 $end
$var wire 1 # clk $end
$var wire 1 / rst_n $end
$var wire 1 6 zf_in $end
$var reg 1 Y zf_out $end
$upscope $end
$scope module dec1 $end
$var wire 16 Z op [15:0] $end
$var wire 1 7 zf $end
$var reg 5 [ alu_op [4:0] $end
$var reg 40 \ data [39:0] $end
$var reg 4 ] dst [3:0] $end
$var reg 1 ^ mem_we $end
$var reg 6 _ pc_in [5:0] $end
$var reg 1 ` pc_we $end
$var reg 1 a reg_we $end
$var reg 1 b sel1 $end
$var reg 1 c sel2 $end
$var reg 4 d src0 [3:0] $end
$var reg 4 e src1 [3:0] $end
$upscope $end
$upscope $end
$upscope $end
$enddefinitions $end
#0
$dumpvars
bx e
bx d
xc
xb
xa
x`
bx _
x^
bx ]
bx \
bx [
bx Z
xY
bx X
bx W
bx V
bx U
bx T
bx S
bz R
bz Q
bz P
bz O
bz N
bz M
bz L
bz K
bx J
bx I
xH
bx G
bx F
bx E
bx D
bx C
bx B
bx A
bx @
bx ?
bx >
bx =
bx <
bx ;
bx :
bx 9
bx 8
x7
x6
bx 5
bx 4
bx 3
x2
bx 1
x0
0/
x.
bx -
bx ,
x+
bx *
bx )
bx (
x'
bx &
bx %
bx $
0#
bx "
bx !
$end
#50
b101000100100011010001010000011110000110 =
b101000100100011010001010000011110000110 3
b101000100100011010001010000011110000110 >
0H
06
b101000100100011010001010000011110000110 G
b101000100100011010001010000011110000110 "
b101000100100011010001010000011110000110 ;
b101000100100011010001010000011110000110 J
b101000100100011010001010000011110000110 :
b101000100100011010001010000011110000110 1
b101000100100011010001010000011110000110 D
0^
0'
b0 \
b0 $
b0 8
0c
02
1b
10
1a
1.
b0 _
b0 )
b0 U
b0 d
b101000100100011010001010000011110000110 ,
b101000100100011010001010000011110000110 9
b101000100100011010001010000011110000110 ?
b0 4
b0 B
b0 e
b101000100100011010001010000011110000110 -
b101000100100011010001010000011110000110 @
b101000100100011010001010000011110000110 E
b101000100100011010001010000011110000110 I
b0 5
b0 C
b10 ]
b10 %
b10 A
b10 [
b10 !
b10 F
0`
0+
b1000100000xxx X
b1000100000xxx (
b1000100000xxx Z
0Y
07
b0 V
b0 *
b0 W
b0 R
b0 Q
b0 P
b0 O
b0 N
b0 M
b0 L
b0 K
b100000001 T
1#
#100
0#
#150
b0 =
b0 3
b0 >
b0 G
b0 "
b0 ;
b0 J
b11 e
b0 &
b0 <
b0 S
b0 -
b0 @
b0 E
b0 I
b11 5
b11 C
b11 ]
b11 %
b11 A
b10000 [
b10000 !
b10000 F
b1000000110011xxx X
b1000000110011xxx (
b1000000110011xxx Z
b1 V
b1 *
b1 W
1#
1/
#200
0#
#250
b1110000000000000000000000000000000 :
b1110000000000000000000000000000000 1
b1110000000000000000000000000000000 D
b1110000000000000000000000000000000 \
b1110000000000000000000000000000000 $
b1110000000000000000000000000000000 8
0b
00
0a
0.
b0 ]
b0 %
b0 A
b101 [
b101 !
b101 F
b10100111110xxx X
b10100111110xxx (
b10100111110xxx Z
b10 V
b10 *
b10 W
1#
#300
0#
#350
b0 :
b0 1
b0 D
b0 \
b0 $
b0 8
b0 e
bx &
bx <
bx S
b101000100100011010001010000011110000110 -
b101000100100011010001010000011110000110 @
b101000100100011010001010000011110000110 E
b101000100100011010001010000011110000110 I
b0 5
b0 C
b10100 [
b10100 !
b10100 F
b10100xxxxx000000 X
b10100xxxxx000000 (
b10100xxxxx000000 Z
b11 V
b11 *
b11 W
1#
#400
0#
#450
b101000100100011010001010000011110000110 :
b101000100100011010001010000011110000110 1
b101000100100011010001010000011110000110 D
1b
10
1a
1.
b11 e
b0 &
b0 <
b0 S
b0 -
b0 @
b0 E
b0 I
b11 5
b11 C
b100 ]
b100 %
b100 A
b110 [
b110 !
b110 F
b110010000110xx X
b110010000110xx (
b110010000110xx Z
b100 V
b100 *
b100 W
1#
#500
0#
#550
1H
16
b0 :
b0 1
b0 D
0b
00
0a
0.
b100 e
b100 5
b100 C
b0 ]
b0 %
b0 A
b100 [
b100 !
b100 F
b1000xxxx010000 X
b1000xxxx010000 (
b1000xxxx010000 Z
b101 V
b101 *
b101 W
1#
#600
0#
#650
0H
06
b1101 _
b1101 )
b1101 U
b0 e
bx &
bx <
bx S
b101000100100011010001010000011110000110 -
b101000100100011010001010000011110000110 @
b101000100100011010001010000011110000110 E
b101000100100011010001010000011110000110 I
b0 5
b0 C
b10100 [
b10100 !
b10100 F
1`
1+
b10100xxxxx001101 X
b10100xxxxx001101 (
b10100xxxxx001101 Z
1Y
17
b110 V
b110 *
b110 W
1#
#700
0#
#750
1H
16
b101000100100011010001010000011110000110 :
b101000100100011010001010000011110000110 1
b101000100100011010001010000011110000110 D
1b
10
b0 _
b0 )
b0 U
b10 d
b10 4
b10 B
b1011 [
b1011 !
b1011 F
0`
0+
b1011xxxxxxx0010 X
b1011xxxxxxx0010 (
b1011xxxxxxx0010 Z
0Y
07
b1101 V
b1101 *
b1101 W
1#
#800
0#
#850
0H
06
b0 :
b0 1
b0 D
0b
00
b11101 _
b11101 )
b11101 U
b0 d
b0 4
b0 B
b10100 [
b10100 !
b10100 F
1`
1+
b10100xxxxx011101 X
b10100xxxxx011101 (
b10100xxxxx011101 Z
1Y
17
b1110 V
b1110 *
b1110 W
1#
#900
0#
#950
b10000100100000010001010011011110000110 =
b10000100100000010001010011011110000110 3
b10000100100000010001010011011110000110 >
b10000100100000010001010011011110000110 G
b10000100100000010001010011011110000110 "
b10000100100000010001010011011110000110 ;
b10000100100000010001010011011110000110 J
b101000100100011010001010000011110000110 :
b101000100100011010001010000011110000110 1
b101000100100011010001010000011110000110 D
1b
10
1a
1.
b0 _
b0 )
b0 U
b10 e
b10 5
b10 C
b10 ]
b10 %
b10 A
b111 [
b111 !
b111 F
0`
0+
b11100100010xxx X
b11100100010xxx (
b11100100010xxx Z
0Y
07
b11101 V
b11101 *
b11101 W
1#
#1000
0#
#1050
b0 :
b0 1
b0 D
0b
00
0a
0.
1`
1+
b100101 _
b100101 )
b100101 U
b0 e
b0 5
b0 C
b0 ]
b0 %
b0 A
b10011 [
b10011 !
b10011 F
b0 =
b0 3
b0 >
b0 G
b0 "
b0 ;
b0 J
b10011xxxxx100101 X
b10011xxxxx100101 (
b10011xxxxx100101 Z
b101000100100011010001010000011110000110 -
b101000100100011010001010000011110000110 @
b101000100100011010001010000011110000110 E
b101000100100011010001010000011110000110 I
b11110 V
b11110 *
b11110 W
1#
#1100
0#
#1150
b1000000100100011010001010110011110000000 :
b1000000100100011010001010110011110000000 1
b1000000100100011010001010110011110000000 D
1b
10
0`
0+
b0 _
b0 )
b0 U
b1 d
b1000000100100011010001010110011110000000 ,
b1000000100100011010001010110011110000000 9
b1000000100100011010001010110011110000000 ?
b1 4
b1 B
b10 e
b10000100100000010001010011011110000110 -
b10000100100000010001010011011110000110 @
b10000100100000010001010011011110000110 E
b10000100100000010001010011011110000110 I
b10 5
b10 C
b11 [
b11 !
b11 F
b11xxx00100001 X
b11xxx00100001 (
b11xxx00100001 Z
b100101 V
b100101 *
b100101 W
1#
#1200
0#
#1250
b0 :
b0 1
b0 D
0b
00
b101001 _
b101001 )
b101001 U
b0 d
b101000100100011010001010000011110000110 ,
b101000100100011010001010000011110000110 9
b101000100100011010001010000011110000110 ?
b0 4
b0 B
b0 e
b101000100100011010001010000011110000110 -
b101000100100011010001010000011110000110 @
b101000100100011010001010000011110000110 E
b101000100100011010001010000011110000110 I
b0 5
b0 C
b10100 [
b10100 !
b10100 F
b10100xxxxx101001 X
b10100xxxxx101001 (
b10100xxxxx101001 Z
b100110 V
b100110 *
b100110 W
1#
#1300
0#
#1350
b1000000000000000000000000000000 =
b1000000000000000000000000000000 3
b1000000000000000000000000000000 >
b1000000000000000000000000000000 G
b1000000000000000000000000000000 "
b1000000000000000000000000000000 ;
b1000000000000000000000000000000 J
1a
1.
b0 _
b0 )
b0 U
b11 e
b0 &
b0 <
b0 S
b0 -
b0 @
b0 E
b0 I
b11 5
b11 C
b11 ]
b11 %
b11 A
b1 [
b1 !
b1 F
b100110011xxx X
b100110011xxx (
b100110011xxx Z
b100111 V
b100111 *
b100111 W
1#
#1400
0#
#1450
0a
0.
1`
1+
b10 _
b10 )
b10 U
b0 e
b0 5
b0 C
b0 ]
b0 %
b0 A
b10011 [
b10011 !
b10011 F
b0 =
b0 3
b0 >
b0 G
b0 "
b0 ;
b0 J
b10011xxxx0000010 X
b10011xxxx0000010 (
b10011xxxx0000010 Z
bx &
bx <
bx S
b101000100100011010001010000011110000110 -
b101000100100011010001010000011110000110 @
b101000100100011010001010000011110000110 E
b101000100100011010001010000011110000110 I
b101000 V
b101000 *
b101000 W
1#
#1500
0#
#1550
b1110000000000000000000000000000000 :
b1110000000000000000000000000000000 1
b1110000000000000000000000000000000 D
b1110000000000000000000000000000000 \
b1110000000000000000000000000000000 $
b1110000000000000000000000000000000 8
0`
0+
b0 _
b0 )
b0 U
b11 e
b1000000000000000000000000000000 -
b1000000000000000000000000000000 @
b1000000000000000000000000000000 E
b1000000000000000000000000000000 I
b11 5
b11 C
b101 [
b101 !
b101 F
b10100111110xxx X
b10100111110xxx (
b10100111110xxx Z
b10 V
b10 *
b10 W
1#
#1600
0#
#1650
b0 :
b0 1
b0 D
b0 \
b0 $
b0 8
b0 e
b101000100100011010001010000011110000110 -
b101000100100011010001010000011110000110 @
b101000100100011010001010000011110000110 E
b101000100100011010001010000011110000110 I
b0 5
b0 C
b10100 [
b10100 !
b10100 F
b10100xxxxx000000 X
b10100xxxxx000000 (
b10100xxxxx000000 Z
b11 V
b11 *
b11 W
1#
#1700
0#
#1750
b101000100100011010001010000011110000110 :
b101000100100011010001010000011110000110 1
b101000100100011010001010000011110000110 D
1b
10
1a
1.
b11 e
b1000000000000000000000000000000 -
b1000000000000000000000000000000 @
b1000000000000000000000000000000 E
b1000000000000000000000000000000 I
b11 5
b11 C
b100 ]
b100 %
b100 A
b110 [
b110 !
b110 F
b110010000110xx X
b110010000110xx (
b110010000110xx Z
b100 V
b100 *
b100 W
1#
#1800
0#
#1850
1H
16
b0 :
b0 1
b0 D
0b
00
0a
0.
b100 e
b0 &
b0 <
b0 S
b0 -
b0 @
b0 E
b0 I
b100 5
b100 C
b0 ]
b0 %
b0 A
b100 [
b100 !
b100 F
b1000xxxx010000 X
b1000xxxx010000 (
b1000xxxx010000 Z
b101 V
b101 *
b101 W
1#
#1900
0#
#1950
0H
06
b1101 _
b1101 )
b1101 U
b0 e
bx &
bx <
bx S
b101000100100011010001010000011110000110 -
b101000100100011010001010000011110000110 @
b101000100100011010001010000011110000110 E
b101000100100011010001010000011110000110 I
b0 5
b0 C
b10100 [
b10100 !
b10100 F
1`
1+
b10100xxxxx001101 X
b10100xxxxx001101 (
b10100xxxxx001101 Z
1Y
17
b110 V
b110 *
b110 W
1#
#2000
0#
#2050
b10000100100000010001010011011110000110 :
b10000100100000010001010011011110000110 1
b10000100100000010001010011011110000110 D
1b
10
b0 _
b0 )
b0 U
b10 d
b10000100100000010001010011011110000110 ,
b10000100100000010001010011011110000110 9
b10000100100000010001010011011110000110 ?
b10 4
b10 B
b1011 [
b1011 !
b1011 F
0`
0+
b1011xxxxxxx0010 X
b1011xxxxxxx0010 (
b1011xxxxxxx0010 Z
0Y
07
b1101 V
b1101 *
b1101 W
1#
#2100
0#
#2150
b0 :
b0 1
b0 D
0b
00
b11101 _
b11101 )
b11101 U
b0 d
b101000100100011010001010000011110000110 ,
b101000100100011010001010000011110000110 9
b101000100100011010001010000011110000110 ?
b0 4
b0 B
b10100 [
b10100 !
b10100 F
b10100xxxxx011101 X
b10100xxxxx011101 (
b10100xxxxx011101 Z
b1110 V
b1110 *
b1110 W
1#
#2200
0#
#2250
b1000000000000000000000000000001 =
b1000000000000000000000000000001 3
b1000000000000000000000000000001 >
b1000000000000000000000000000001 G
b1000000000000000000000000000001 "
b1000000000000000000000000000001 ;
b1000000000000000000000000000001 J
1a
1.
b0 _
b0 )
b0 U
b11 e
b1000000000000000000000000000000 -
b1000000000000000000000000000000 @
b1000000000000000000000000000000 E
b1000000000000000000000000000000 I
b11 5
b11 C
b11 ]
b11 %
b11 A
b0 [
b0 !
b0 F
b110011xxx X
b110011xxx (
b110011xxx Z
b1111 V
b1111 *
b1111 W
1#
#2300
0#
#2350
0a
0.
1`
1+
b0 e
b0 5
b0 C
b0 ]
b0 %
b0 A
b10011 [
b10011 !
b10011 F
b0 =
b0 3
b0 >
b0 G
b0 "
b0 ;
b0 J
b10011xxxxx000000 X
b10011xxxxx000000 (
b10011xxxxx000000 Z
b101000100100011010001010000011110000110 -
b101000100100011010001010000011110000110 @
b101000100100011010001010000011110000110 E
b101000100100011010001010000011110000110 I
b10000 V
b10000 *
b10000 W
1#
#2400
0#
#2450
b101000100100011010001010000011110000110 =
b101000100100011010001010000011110000110 3
b101000100100011010001010000011110000110 >
b101000100100011010001010000011110000110 G
b101000100100011010001010000011110000110 "
b101000100100011010001010000011110000110 ;
b101000100100011010001010000011110000110 J
b101000100100011010001010000011110000110 :
b101000100100011010001010000011110000110 1
b101000100100011010001010000011110000110 D
1b
10
1a
1.
0`
0+
b10 ]
b10 %
b10 A
b10 [
b10 !
b10 F
b1000100000xxx X
b1000100000xxx (
b1000100000xxx Z
b0 V
b0 *
b0 W
1#
#2500
0#
#2550
b1 =
b1 3
b1 >
b1 G
b1 "
b1 ;
b1 J
b11 e
b1000000000000000000000000000001 -
b1000000000000000000000000000001 @
b1000000000000000000000000000001 E
b1000000000000000000000000000001 I
b11 5
b11 C
b11 ]
b11 %
b11 A
b10000 [
b10000 !
b10000 F
b1000000110011xxx X
b1000000110011xxx (
b1000000110011xxx Z
b1 V
b1 *
b1 W
1#
#2600
0#
#2650
b1110000000000000000000000000000000 :
b1110000000000000000000000000000000 1
b1110000000000000000000000000000000 D
b1110000000000000000000000000000000 \
b1110000000000000000000000000000000 $
b1110000000000000000000000000000000 8
0b
00
0a
0.
b0 ]
b0 %
b0 A
b101 [
b101 !
b101 F
b10100111110xxx X
b10100111110xxx (
b10100111110xxx Z
b0 &
b0 <
b0 S
b1 -
b1 @
b1 E
b1 I
b10 V
b10 *
b10 W
1#
#2700
0#
#2750
b0 =
b0 3
b0 >
b0 G
b0 "
b0 ;
b0 J
b0 :
b0 1
b0 D
b0 \
b0 $
b0 8
b0 e
bx &
bx <
bx S
b101000100100011010001010000011110000110 -
b101000100100011010001010000011110000110 @
b101000100100011010001010000011110000110 E
b101000100100011010001010000011110000110 I
b0 5
b0 C
b10100 [
b10100 !
b10100 F
b10100xxxxx000000 X
b10100xxxxx000000 (
b10100xxxxx000000 Z
b11 V
b11 *
b11 W
1#
#2800
0#
#2850
b1 =
b1 3
b1 >
b1 G
b1 "
b1 ;
b1 J
b101000100100011010001010000011110000110 :
b101000100100011010001010000011110000110 1
b101000100100011010001010000011110000110 D
1b
10
1a
1.
b11 e
b0 &
b0 <
b0 S
b1 -
b1 @
b1 E
b1 I
b11 5
b11 C
b100 ]
b100 %
b100 A
b110 [
b110 !
b110 F
b110010000110xx X
b110010000110xx (
b110010000110xx Z
b100 V
b100 *
b100 W
1#
#2900
0#
#2950
b0 :
b0 1
b0 D
0b
00
0a
0.
b100 e
b100 5
b100 C
b0 ]
b0 %
b0 A
b100 [
b100 !
b100 F
b1000xxxx010000 X
b1000xxxx010000 (
b1000xxxx010000 Z
b101 V
b101 *
b101 W
1#
#3000
0#
#3050
b0 =
b0 3
b0 >
b0 G
b0 "
b0 ;
b0 J
b1101 _
b1101 )
b1101 U
b0 e
bx &
bx <
bx S
b101000100100011010001010000011110000110 -
b101000100100011010001010000011110000110 @
b101000100100011010001010000011110000110 E
b101000100100011010001010000011110000110 I
b0 5
b0 C
b10100 [
b10100 !
b10100 F
b10100xxxxx001101 X
b10100xxxxx001101 (
b10100xxxxx001101 Z
b110 V
b110 *
b110 W
1#
#3100
0#
#3150
1H
16
b1 :
b1 1
b1 D
b1 \
b1 $
b1 8
b0 _
b0 )
b0 U
b100 e
b0 &
b0 <
b0 S
b1 -
b1 @
b1 E
b1 I
b100 5
b100 C
b100 [
b100 !
b100 F
b100xxxxx010001 X
b100xxxxx010001 (
b100xxxxx010001 Z
b111 V
b111 *
b111 W
1#
#3200
0#
#3250
0H
06
b0 :
b0 1
b0 D
b0 \
b0 $
b0 8
b10001 _
b10001 )
b10001 U
b0 e
bx &
bx <
bx S
b101000100100011010001010000011110000110 -
b101000100100011010001010000011110000110 @
b101000100100011010001010000011110000110 E
b101000100100011010001010000011110000110 I
b0 5
b0 C
b10100 [
b10100 !
b10100 F
1`
1+
b10100xxxxx010001 X
b10100xxxxx010001 (
b10100xxxxx010001 Z
1Y
17
b1000 V
b1000 *
b1000 W
1#
#3300
0#
#3350
1H
16
b101000100100011010001010000011110000110 :
b101000100100011010001010000011110000110 1
b101000100100011010001010000011110000110 D
1b
10
b0 _
b0 )
b0 U
b10 d
b10 4
b10 B
b1100 [
b1100 !
b1100 F
0`
0+
b1100xxxxxxx0010 X
b1100xxxxxxx0010 (
b1100xxxxxxx0010 Z
0Y
07
b10001 V
b10001 *
b10001 W
1#
#3400
0#
#3450
0H
06
b0 :
b0 1
b0 D
0b
00
b11111 _
b11111 )
b11111 U
b0 d
b0 4
b0 B
b10100 [
b10100 !
b10100 F
1`
1+
b10100xxxxx011111 X
b10100xxxxx011111 (
b10100xxxxx011111 Z
1Y
17
b10010 V
b10010 *
b10010 W
1#
#3500
0#
#3550
b1000000100100011010001010110011110000000 =
b1000000100100011010001010110011110000000 3
b1000000100100011010001010110011110000000 >
b1000000100100011010001010110011110000000 G
b1000000100100011010001010110011110000000 "
b1000000100100011010001010110011110000000 ;
b1000000100100011010001010110011110000000 J
b101000100100011010001010000011110000110 :
b101000100100011010001010000011110000110 1
b101000100100011010001010000011110000110 D
1b
10
1a
1.
b0 _
b0 )
b0 U
b10 e
b10 5
b10 C
b10 ]
b10 %
b10 A
b1000 [
b1000 !
b1000 F
0`
0+
b100000100010xxx X
b100000100010xxx (
b100000100010xxx Z
0Y
07
b11111 V
b11111 *
b11111 W
1#
#3600
0#
#3650
b0 =
b0 3
b0 >
b0 G
b0 "
b0 ;
b0 J
b0 :
b0 1
b0 D
0b
00
0a
0.
1`
1+
b100101 _
b100101 )
b100101 U
b0 e
b0 5
b0 C
b0 ]
b0 %
b0 A
b10011 [
b10011 !
b10011 F
b10011xxxxx100101 X
b10011xxxxx100101 (
b10011xxxxx100101 Z
b101000100100011010001010000011110000110 -
b101000100100011010001010000011110000110 @
b101000100100011010001010000011110000110 E
b101000100100011010001010000011110000110 I
b100000 V
b100000 *
b100000 W
1#
#3700
0#
#3750
1H
16
b1000000100100011010001010110011110000000 :
b1000000100100011010001010110011110000000 1
b1000000100100011010001010110011110000000 D
1b
10
0`
0+
b0 _
b0 )
b0 U
b1 d
b1000000100100011010001010110011110000000 ,
b1000000100100011010001010110011110000000 9
b1000000100100011010001010110011110000000 ?
b1 4
b1 B
b10 e
b1000000100100011010001010110011110000000 -
b1000000100100011010001010110011110000000 @
b1000000100100011010001010110011110000000 E
b1000000100100011010001010110011110000000 I
b10 5
b10 C
b11 [
b11 !
b11 F
b11xxx00100001 X
b11xxx00100001 (
b11xxx00100001 Z
b100101 V
b100101 *
b100101 W
1#
#3800
0#
#3850
0H
06
b0 :
b0 1
b0 D
0b
00
b101001 _
b101001 )
b101001 U
b0 d
b101000100100011010001010000011110000110 ,
b101000100100011010001010000011110000110 9
b101000100100011010001010000011110000110 ?
b0 4
b0 B
b0 e
b101000100100011010001010000011110000110 -
b101000100100011010001010000011110000110 @
b101000100100011010001010000011110000110 E
b101000100100011010001010000011110000110 I
b0 5
b0 C
b10100 [
b10100 !
b10100 F
1`
1+
b10100xxxxx101001 X
b10100xxxxx101001 (
b10100xxxxx101001 Z
1Y
17
b100110 V
b100110 *
b100110 W
1#
#3900
0#
#3950
0`
0+
0Y
07
b101001 V
b101001 *
b101001 W
1#
#4000
0#
#4050
b101010 V
b101010 *
b101010 W
1#
#4100
0#
#4150
b101011 V
b101011 *
b101011 W
1#
#4200
0#
#4250
b101100 V
b101100 *
b101100 W
1#
#4300
0#
#4350
b101101 V
b101101 *
b101101 W
1#
#4400
0#
#4450
b101110 V
b101110 *
b101110 W
1#
#4500
0#
#4550
b101111 V
b101111 *
b101111 W
1#
#4600
0#
#4650
b110000 V
b110000 *
b110000 W
1#
#4700
0#
#4750
b110001 V
b110001 *
b110001 W
1#
#4800
0#
#4850
b110010 V
b110010 *
b110010 W
1#
#4900
0#
#4950
b110011 V
b110011 *
b110011 W
1#
#5000
0#
#5050
b110100 V
b110100 *
b110100 W
1#
#5100
0#
#5150
b110101 V
b110101 *
b110101 W
1#
#5200
0#
#5250
b110110 V
b110110 *
b110110 W
1#
#5300
0#
#5350
b110111 V
b110111 *
b110111 W
1#
#5400
0#
#5450
b111000 V
b111000 *
b111000 W
1#
#5500
0#
#5550
b111001 V
b111001 *
b111001 W
1#
#5600
0#
#5650
b111010 V
b111010 *
b111010 W
1#
#5700
0#
#5750
b111011 V
b111011 *
b111011 W
1#
#5800
0#
#5850
b111100 V
b111100 *
b111100 W
1#
#5900
0#
#5950
b111101 V
b111101 *
b111101 W
1#
#6000
0#
#6050
b111110 V
b111110 *
b111110 W
1#
#6100
0#
#6150
b111111 V
b111111 *
b111111 W
1#
#6200
0#
#6250
b101000100100011010001010000011110000110 =
b101000100100011010001010000011110000110 3
b101000100100011010001010000011110000110 >
b101000100100011010001010000011110000110 G
b101000100100011010001010000011110000110 "
b101000100100011010001010000011110000110 ;
b101000100100011010001010000011110000110 J
b101000100100011010001010000011110000110 :
b101000100100011010001010000011110000110 1
b101000100100011010001010000011110000110 D
1b
10
1a
1.
b0 _
b0 )
b0 U
b10 ]
b10 %
b10 A
b10 [
b10 !
b10 F
b1000100000xxx X
b1000100000xxx (
b1000100000xxx Z
b0 V
b0 *
b0 W
1#
#6300
0#
#6350
b1 =
b1 3
b1 >
b1 G
b1 "
b1 ;
b1 J
b11 e
b0 &
b0 <
b0 S
b1 -
b1 @
b1 E
b1 I
b11 5
b11 C
b11 ]
b11 %
b11 A
b10000 [
b10000 !
b10000 F
b1000000110011xxx X
b1000000110011xxx (
b1000000110011xxx Z
b1 V
b1 *
b1 W
1#
#6400
0#
#6450
b1110000000000000000000000000000000 :
b1110000000000000000000000000000000 1
b1110000000000000000000000000000000 D
b1110000000000000000000000000000000 \
b1110000000000000000000000000000000 $
b1110000000000000000000000000000000 8
0b
00
0a
0.
b0 ]
b0 %
b0 A
b101 [
b101 !
b101 F
b10100111110xxx X
b10100111110xxx (
b10100111110xxx Z
b10 V
b10 *
b10 W
1#
#6500
0#
#6550
b0 =
b0 3
b0 >
b0 G
b0 "
b0 ;
b0 J
b0 :
b0 1
b0 D
b0 \
b0 $
b0 8
b0 e
bx &
bx <
bx S
b101000100100011010001010000011110000110 -
b101000100100011010001010000011110000110 @
b101000100100011010001010000011110000110 E
b101000100100011010001010000011110000110 I
b0 5
b0 C
b10100 [
b10100 !
b10100 F
b10100xxxxx000000 X
b10100xxxxx000000 (
b10100xxxxx000000 Z
b11 V
b11 *
b11 W
1#
#6600
0#
#6650
b1 =
b1 3
b1 >
b1 G
b1 "
b1 ;
b1 J
b101000100100011010001010000011110000110 :
b101000100100011010001010000011110000110 1
b101000100100011010001010000011110000110 D
1b
10
1a
1.
b11 e
b0 &
b0 <
b0 S
b1 -
b1 @
b1 E
b1 I
b11 5
b11 C
b100 ]
b100 %
b100 A
b110 [
b110 !
b110 F
b110010000110xx X
b110010000110xx (
b110010000110xx Z
b100 V
b100 *
b100 W
1#
#6700
0#
#6750
b0 :
b0 1
b0 D
0b
00
0a
0.
b100 e
b100 5
b100 C
b0 ]
b0 %
b0 A
b100 [
b100 !
b100 F
b1000xxxx010000 X
b1000xxxx010000 (
b1000xxxx010000 Z
b101 V
b101 *
b101 W
1#
#6800
0#
#6850
b0 =
b0 3
b0 >
b0 G
b0 "
b0 ;
b0 J
b1101 _
b1101 )
b1101 U
b0 e
bx &
bx <
bx S
b101000100100011010001010000011110000110 -
b101000100100011010001010000011110000110 @
b101000100100011010001010000011110000110 E
b101000100100011010001010000011110000110 I
b0 5
b0 C
b10100 [
b10100 !
b10100 F
b10100xxxxx001101 X
b10100xxxxx001101 (
b10100xxxxx001101 Z
b110 V
b110 *
b110 W
1#
#6900
0#
#6950
1H
16
b1 :
b1 1
b1 D
b1 \
b1 $
b1 8
b0 _
b0 )
b0 U
b100 e
b0 &
b0 <
b0 S
b1 -
b1 @
b1 E
b1 I
b100 5
b100 C
b100 [
b100 !
b100 F
b100xxxxx010001 X
b100xxxxx010001 (
b100xxxxx010001 Z
b111 V
b111 *
b111 W
1#
#7000
0#
#7050
0H
06
b0 :
b0 1
b0 D
b0 \
b0 $
b0 8
b10001 _
b10001 )
b10001 U
b0 e
bx &
bx <
bx S
b101000100100011010001010000011110000110 -
b101000100100011010001010000011110000110 @
b101000100100011010001010000011110000110 E
b101000100100011010001010000011110000110 I
b0 5
b0 C
b10100 [
b10100 !
b10100 F
1`
1+
b10100xxxxx010001 X
b10100xxxxx010001 (
b10100xxxxx010001 Z
1Y
17
b1000 V
b1000 *
b1000 W
1#
#7100
0#
#7150
1H
16
b101000100100011010001010000011110000110 :
b101000100100011010001010000011110000110 1
b101000100100011010001010000011110000110 D
1b
10
b0 _
b0 )
b0 U
b10 d
b10 4
b10 B
b1100 [
b1100 !
b1100 F
0`
0+
b1100xxxxxxx0010 X
b1100xxxxxxx0010 (
b1100xxxxxxx0010 Z
0Y
07
b10001 V
b10001 *
b10001 W
1#
#7200
0#
#7250
0H
06
b0 :
b0 1
b0 D
0b
00
b11111 _
b11111 )
b11111 U
b0 d
b0 4
b0 B
b10100 [
b10100 !
b10100 F
1`
1+
b10100xxxxx011111 X
b10100xxxxx011111 (
b10100xxxxx011111 Z
1Y
17
b10010 V
b10010 *
b10010 W
1#
#7300
0#
#7350
b1000000100100011010001010110011110000000 =
b1000000100100011010001010110011110000000 3
b1000000100100011010001010110011110000000 >
b1000000100100011010001010110011110000000 G
b1000000100100011010001010110011110000000 "
b1000000100100011010001010110011110000000 ;
b1000000100100011010001010110011110000000 J
b101000100100011010001010000011110000110 :
b101000100100011010001010000011110000110 1
b101000100100011010001010000011110000110 D
1b
10
1a
1.
b0 _
b0 )
b0 U
b10 e
b10 5
b10 C
b10 ]
b10 %
b10 A
b1000 [
b1000 !
b1000 F
0`
0+
b100000100010xxx X
b100000100010xxx (
b100000100010xxx Z
0Y
07
b11111 V
b11111 *
b11111 W
1#
#7400
0#
