top_test.vcd
$date
	Thu Jul 13 16:23:21 2017
$end
$version
	Icarus Verilog
$end
$timescale
	1ps
$end
$scope module test $end
$scope module top0 $end
$var wire 5 ! alu_op [4:0] $end
$var wire 40 " alu_out [39:0] $end
$var wire 5 # btn [4:0] $end
$var wire 1 $ clk $end
$var wire 1 % comp $end
$var wire 40 & dec_data [39:0] $end
$var wire 4 ' dst [3:0] $end
$var wire 1 ( mclk $end
$var wire 40 ) mem_data [39:0] $end
$var wire 1 * mem_we $end
$var wire 16 + op [15:0] $end
$var wire 34 , ord [33:0] $end
$var wire 6 - pc_in [5:0] $end
$var wire 6 . pc_out [5:0] $end
$var wire 1 / pc_we $end
$var wire 40 0 reg_data0 [39:0] $end
$var wire 40 1 reg_data1 [39:0] $end
$var wire 1 2 reg_we $end
$var wire 1 3 rst_n $end
$var wire 7 4 seg0 [6:0] $end
$var wire 7 5 seg1 [6:0] $end
$var wire 7 6 seg2 [6:0] $end
$var wire 7 7 seg3 [6:0] $end
$var wire 1 8 sel1 $end
$var wire 40 9 sel1_out [39:0] $end
$var wire 1 : sel2 $end
$var wire 40 ; sel2_out [39:0] $end
$var wire 4 < src0 [3:0] $end
$var wire 4 = src1 [3:0] $end
$var wire 1 > zf $end
$var wire 1 ? zf_out $end
$scope module div0 $end
$var wire 1 $ clk $end
$var wire 1 ( mclk $end
$var wire 1 3 rst_n $end
$var reg 2 @ cnt [1:0] $end
$upscope $end
$scope module s1 $end
$var wire 40 A in0 [39:0] $end
$var wire 40 B in1 [39:0] $end
$var wire 1 8 sel $end
$var reg 40 C out [39:0] $end
$upscope $end
$scope module s2 $end
$var wire 40 D in0 [39:0] $end
$var wire 40 E in1 [39:0] $end
$var wire 1 : sel $end
$var reg 40 F out [39:0] $end
$upscope $end
$scope module r0 $end
$var wire 1 G DEF_CLR $end
$var wire 1 $ clk $end
$var wire 1 % comp $end
$var wire 40 H data [39:0] $end
$var wire 40 I data0 [39:0] $end
$var wire 40 J data1 [39:0] $end
$var wire 4 K dst [3:0] $end
$var wire 34 L ord [33:0] $end
$var wire 1 3 rst_n $end
$var wire 4 M src0 [3:0] $end
$var wire 4 N src1 [3:0] $end
$var wire 1 2 we $end
$upscope $end
$scope module a0 $end
$var wire 40 O in0 [39:0] $end
$var wire 40 P in1 [39:0] $end
$var wire 5 Q op [4:0] $end
$var reg 40 R out [39:0] $end
$var reg 1 S zf $end
$upscope $end
$scope module mem0 $end
$var wire 40 T addr [39:0] $end
$var wire 1 $ clk $end
$var wire 40 U in [39:0] $end
$var wire 8 V mem0 [7:0] $end
$var wire 8 W mem1 [7:0] $end
$var wire 8 X mem2 [7:0] $end
$var wire 8 Y mem3 [7:0] $end
$var wire 8 Z mem4 [7:0] $end
$var wire 8 [ mem5 [7:0] $end
$var wire 8 \ mem6 [7:0] $end
$var wire 8 ] mem7 [7:0] $end
$var wire 40 ^ out [39:0] $end
$var wire 1 3 rst_n $end
$var wire 1 * we $end
$var integer 32 _ i [31:0] $end
$upscope $end
$scope module pc0 $end
$var wire 1 $ clk $end
$var wire 6 ` pc_in [5:0] $end
$var wire 1 3 rst_n $end
$var wire 1 / we $end
$var reg 6 a pc_out [5:0] $end
$upscope $end
$scope module imem $end
$var wire 6 b pc [5:0] $end
$var reg 16 c op [15:0] $end
$upscope $end
$scope module zf0 $end
$var wire 1 $ clk $end
$var wire 1 3 rst_n $end
$var wire 1 > zf_in $end
$var reg 1 d zf_out $end
$upscope $end
$scope module dec1 $end
$var wire 16 e op [15:0] $end
$var wire 1 ? zf $end
$var reg 5 f alu_op [4:0] $end
$var reg 40 g data [39:0] $end
$var reg 4 h dst [3:0] $end
$var reg 1 i mem_we $end
$var reg 6 j pc_in [5:0] $end
$var reg 1 k pc_we $end
$var reg 1 l reg_we $end
$var reg 1 m sel1 $end
$var reg 1 n sel2 $end
$var reg 4 o src0 [3:0] $end
$var reg 4 p src1 [3:0] $end
$upscope $end
$scope module io0 $end
$var wire 1 q btn $end
$var wire 1 $ clk $end
$var wire 1 % comp $end
$var wire 34 r ord [33:0] $end
$var wire 1 3 rst_n $end
$var reg 4 s btn_flag [3:0] $end
$var reg 7 t seg0 [6:0] $end
$var reg 7 u seg1 [6:0] $end
$var reg 7 v seg2 [6:0] $end
$var reg 7 w seg3 [6:0] $end
$var reg 5 x sort_num [4:0] $end
$upscope $end
$upscope $end
$upscope $end
$enddefinitions $end
#0
$dumpvars
bx x
bx w
bx v
bx u
bx t
bx s
bz r
zq
bx p
bx o
xn
xm
xl
xk
bx j
xi
bx h
bx g
bx f
bx e
xd
bx c
bx b
bx a
bx `
bx _
bx ^
bz ]
bz \
bz [
bz Z
bz Y
bz X
bz W
bz V
bx U
bx T
xS
bx R
bx Q
bx P
bx O
bx N
bx M
bz L
bx K
bx J
bx I
bx H
zG
bx F
bx E
bx D
bx C
bx B
bx A
bx @
x?
x>
bx =
bx <
bx ;
x:
bx 9
x8
bx 7
bx 6
bx 5
bx 4
03
x2
bx 1
bx 0
x/
bx .
bx -
bz ,
bx +
x*
bx )
0(
bx '
bx &
x%
x$
bx #
bx "
bx !
$end
#50
b101000100100011010001010000011110000110 F
b101000100100011010001010000011110000110 ;
b101000100100011010001010000011110000110 H
0S
0>
b101000100100011010001010000011110000110 R
b101000100100011010001010000011110000110 "
b101000100100011010001010000011110000110 D
b101000100100011010001010000011110000110 U
b101000100100011010001010000011110000110 C
b101000100100011010001010000011110000110 9
b101000100100011010001010000011110000110 O
0i
0*
b0 g
b0 &
b0 A
0n
0:
1m
18
1l
12
b0 j
b0 -
b0 `
b0 o
b101000100100011010001010000011110000110 0
b101000100100011010001010000011110000110 B
b101000100100011010001010000011110000110 I
b0 <
b0 M
b0 p
b101000100100011010001010000011110000110 1
b101000100100011010001010000011110000110 J
b101000100100011010001010000011110000110 P
b101000100100011010001010000011110000110 T
b0 =
b0 N
b10 h
b10 '
b10 K
b10 f
b10 !
b10 Q
0k
0/
b1000100000xxx c
b1000100000xxx +
b1000100000xxx e
b0 ,
b0 L
b0 r
0%
0d
0?
b0 x
b1 s
b0 a
b0 .
b0 b
b0 ]
b0 \
b0 [
b0 Z
b0 Y
b0 X
b0 W
b0 V
b100000001 _
1$
b0 @
1(
#100
0(
#150
b0 F
b0 ;
b0 H
b0 R
b0 "
b0 D
b0 U
b11 p
b0 )
b0 E
b0 ^
b0 1
b0 J
b0 P
b0 T
b11 =
b11 N
b11 h
b11 '
b11 K
b10000 f
b10000 !
b10000 Q
b1000000110011xxx c
b1000000110011xxx +
b1000000110011xxx e
b1 @
b1 a
b1 .
b1 b
1(
13
#200
0(
#250
0$
b10 @
1(
#300
0(
#350
b11 @
1(
#400
0(
#450
b1110000000000000000000000000000000 C
b1110000000000000000000000000000000 9
b1110000000000000000000000000000000 O
b1110000000000000000000000000000000 g
b1110000000000000000000000000000000 &
b1110000000000000000000000000000000 A
0m
08
0l
02
b0 h
b0 '
b0 K
b101 f
b101 !
b101 Q
b10100111110xxx c
b10100111110xxx +
b10100111110xxx e
b0 w
b0 7
b0 v
b0 6
b0 u
b0 5
b0 t
b0 4
b10 a
b10 .
b10 b
1$
b0 @
1(
#500
0(
#550
b1 @
1(
#600
0(
#650
0$
b10 @
1(
#700
0(
#750
b11 @
1(
#800
0(
#850
b0 C
b0 9
b0 O
b0 g
b0 &
b0 A
b0 p
bx )
bx E
bx ^
b101000100100011010001010000011110000110 1
b101000100100011010001010000011110000110 J
b101000100100011010001010000011110000110 P
b101000100100011010001010000011110000110 T
b0 =
b0 N
b10100 f
b10100 !
b10100 Q
b10100xxxxx000000 c
b10100xxxxx000000 +
b10100xxxxx000000 e
b11 a
b11 .
b11 b
1$
b0 @
1(
#900
0(
#950
b1 @
1(
#1000
0(
#1050
0$
b10 @
1(
#1100
0(
#1150
b11 @
1(
#1200
0(
#1250
b101000100100011010001010000011110000110 C
b101000100100011010001010000011110000110 9
b101000100100011010001010000011110000110 O
1m
18
1l
12
b11 p
b0 )
b0 E
b0 ^
b0 1
b0 J
b0 P
b0 T
b11 =
b11 N
b100 h
b100 '
b100 K
b110 f
b110 !
b110 Q
b110010000110xx c
b110010000110xx +
b110010000110xx e
b100 a
b100 .
b100 b
1$
b0 @
1(
#1300
0(
#1350
b1 @
1(
#1400
0(
#1450
0$
b10 @
1(
#1500
0(
#1550
b11 @
1(
#1600
0(
#1650
1S
1>
b0 C
b0 9
b0 O
0m
08
0l
02
b100 p
b100 =
b100 N
b0 h
b0 '
b0 K
b100 f
b100 !
b100 Q
b1000xxxx010000 c
b1000xxxx010000 +
b1000xxxx010000 e
b101 a
b101 .
b101 b
1$
b0 @
1(
#1700
0(
#1750
b1 @
1(
#1800
0(
#1850
0$
b10 @
1(
#1900
0(
#1950
b11 @
1(
#2000
0(
#2050
0S
0>
b1101 j
b1101 -
b1101 `
b0 p
bx )
bx E
bx ^
b101000100100011010001010000011110000110 1
b101000100100011010001010000011110000110 J
b101000100100011010001010000011110000110 P
b101000100100011010001010000011110000110 T
b0 =
b0 N
b10100 f
b10100 !
b10100 Q
1k
1/
b10100xxxxx001101 c
b10100xxxxx001101 +
b10100xxxxx001101 e
1d
1?
b110 a
b110 .
b110 b
1$
b0 @
1(
#2100
0(
#2150
b1 @
1(
#2200
0(
#2250
0$
b10 @
1(
#2300
0(
#2350
b11 @
1(
#2400
0(
#2450
1m
18
b0 j
b0 -
b0 `
b10 o
b0 0
b0 B
b0 I
b10 <
b10 M
b1011 f
b1011 !
b1011 Q
0k
0/
b1011xxxxxxx0010 c
b1011xxxxxxx0010 +
b1011xxxxxxx0010 e
0d
0?
b1101 a
b1101 .
b1101 b
1$
b0 @
1(
#2500
0(
#2550
b1 @
1(
#2600
0(
#2650
0$
b10 @
1(
#2700
0(
#2750
b11 @
1(
#2800
0(
#2850
0m
08
b11101 j
b11101 -
b11101 `
b0 o
b101000100100011010001010000011110000110 0
b101000100100011010001010000011110000110 B
b101000100100011010001010000011110000110 I
b0 <
b0 M
b10100 f
b10100 !
b10100 Q
b10100xxxxx011101 c
b10100xxxxx011101 +
b10100xxxxx011101 e
b1110 a
b1110 .
b1110 b
1$
b0 @
1(
#2900
0(
#2950
b1 @
1(
#3000
0(
#3050
0$
b10 @
1(
#3100
0(
#3150
b11 @
1(
#3200
0(
#3250
b1 F
b1 ;
b1 H
b1 R
b1 "
b1 D
b1 U
1l
12
b0 j
b0 -
b0 `
b11 p
b0 )
b0 E
b0 ^
b0 1
b0 J
b0 P
b0 T
b11 =
b11 N
b11 h
b11 '
b11 K
b0 f
b0 !
b0 Q
b110011xxx c
b110011xxx +
b110011xxx e
b1111 a
b1111 .
b1111 b
1$
b0 @
1(
#3300
0(
#3350
b1 @
1(
#3400
0(
#3450
0$
b10 @
1(
#3500
0(
#3550
b11 @
1(
#3600
0(
#3650
0l
02
1k
1/
b0 p
bx )
bx E
bx ^
b0 =
b0 N
b0 h
b0 '
b0 K
b10011 f
b10011 !
b10011 Q
b0 F
b0 ;
b0 H
b0 R
b0 "
b0 D
b0 U
b10011xxxxx000000 c
b10011xxxxx000000 +
b10011xxxxx000000 e
b101000100100011010001010000011110000110 1
b101000100100011010001010000011110000110 J
b101000100100011010001010000011110000110 P
b101000100100011010001010000011110000110 T
b10000 a
b10000 .
b10000 b
1$
b0 @
1(
#3700
0(
#3750
b1 @
1(
#3800
0(
#3850
0$
b10 @
1(
#3900
0(
#3950
b11 @
1(
#4000
0(
#4050
b101000100100011010001010000011110000110 F
b101000100100011010001010000011110000110 ;
b101000100100011010001010000011110000110 H
b101000100100011010001010000011110000110 R
b101000100100011010001010000011110000110 "
b101000100100011010001010000011110000110 D
b101000100100011010001010000011110000110 U
b101000100100011010001010000011110000110 C
b101000100100011010001010000011110000110 9
b101000100100011010001010000011110000110 O
1m
18
1l
12
0k
0/
b10 h
b10 '
b10 K
b10 f
b10 !
b10 Q
b1000100000xxx c
b1000100000xxx +
b1000100000xxx e
b0 a
b0 .
b0 b
1$
b0 @
1(
#4100
0(
#4150
b1 @
1(
#4200
0(
#4250
0$
b10 @
1(
#4300
0(
#4350
b11 @
1(
#4400
0(
#4450
b1 F
b1 ;
b1 H
b1 R
b1 "
b1 D
b1 U
b11 p
b0 )
b0 E
b0 ^
b1 1
b1 J
b1 P
b1 T
b11 =
b11 N
b11 h
b11 '
b11 K
b10000 f
b10000 !
b10000 Q
b1000000110011xxx c
b1000000110011xxx +
b1000000110011xxx e
b100100011010001010000011110000110 ,
b100100011010001010000011110000110 L
b100100011010001010000011110000110 r
b1 a
b1 .
b1 b
1$
b0 @
1(
#4500
0(
#4550
b1 @
1(
#4600
0(
#4650
0$
b10 @
1(
#4700
0(
#4750
b11 @
1(
#4800
0(
#4850
b1110000000000000000000000000000000 C
b1110000000000000000000000000000000 9
b1110000000000000000000000000000000 O
b1110000000000000000000000000000000 g
b1110000000000000000000000000000000 &
b1110000000000000000000000000000000 A
0m
08
0l
02
b0 h
b0 '
b0 K
b101 f
b101 !
b101 Q
b10100111110xxx c
b10100111110xxx +
b10100111110xxx e
b10 a
b10 .
b10 b
1$
b0 @
1(
#4900
0(
#4950
b1 @
1(
#5000
0(
#5050
0$
b10 @
1(
#5100
0(
#5150
b11 @
1(
#5200
0(
#5250
b0 F
b0 ;
b0 H
b0 R
b0 "
b0 D
b0 U
b0 C
b0 9
b0 O
b0 g
b0 &
b0 A
b0 p
bx )
bx E
bx ^
b101000100100011010001010000011110000110 1
b101000100100011010001010000011110000110 J
b101000100100011010001010000011110000110 P
b101000100100011010001010000011110000110 T
b0 =
b0 N
b10100 f
b10100 !
b10100 Q
b10100xxxxx000000 c
b10100xxxxx000000 +
b10100xxxxx000000 e
b11 a
b11 .
b11 b
1$
b0 @
1(
#5300
0(
#5350
b1 @
1(
#5400
0(
#5450
0$
b10 @
1(
#5500
0(
#5550
b11 @
1(
#5600
0(
#5650
b1 F
b1 ;
b1 H
b1 R
b1 "
b1 D
b1 U
b101000100100011010001010000011110000110 C
b101000100100011010001010000011110000110 9
b101000100100011010001010000011110000110 O
1m
18
1l
12
b11 p
b0 )
b0 E
b0 ^
b1 1
b1 J
b1 P
b1 T
b11 =
b11 N
b100 h
b100 '
b100 K
b110 f
b110 !
b110 Q
b110010000110xx c
b110010000110xx +
b110010000110xx e
b100 a
b100 .
b100 b
1$
b0 @
1(
#5700
0(
#5750
b1 @
1(
#5800
0(
#5850
0$
b10 @
1(
#5900
0(
#5950
b11 @
1(
#6000
0(
#6050
b0 C
b0 9
b0 O
0m
08
0l
02
b100 p
b100 =
b100 N
b0 h
b0 '
b0 K
b100 f
b100 !
b100 Q
b1000xxxx010000 c
b1000xxxx010000 +
b1000xxxx010000 e
b101 a
b101 .
b101 b
1$
b0 @
1(
#6100
0(
#6150
b1 @
1(
#6200
0(
#6250
0$
b10 @
1(
#6300
0(
#6350
b11 @
1(
#6400
0(
#6450
b0 F
b0 ;
b0 H
b0 R
b0 "
b0 D
b0 U
b1101 j
b1101 -
b1101 `
b0 p
bx )
bx E
bx ^
b101000100100011010001010000011110000110 1
b101000100100011010001010000011110000110 J
b101000100100011010001010000011110000110 P
b101000100100011010001010000011110000110 T
b0 =
b0 N
b10100 f
b10100 !
b10100 Q
b10100xxxxx001101 c
b10100xxxxx001101 +
b10100xxxxx001101 e
b110 a
b110 .
b110 b
1$
b0 @
1(
#6500
0(
#6550
b1 @
1(
#6600
0(
#6650
0$
b10 @
1(
#6700
0(
#6750
b11 @
1(
#6800
0(
#6850
1S
1>
b1 C
b1 9
b1 O
b1 g
b1 &
b1 A
b0 j
b0 -
b0 `
b100 p
b0 )
b0 E
b0 ^
b1 1
b1 J
b1 P
b1 T
b100 =
b100 N
b100 f
b100 !
b100 Q
b100xxxxx010001 c
b100xxxxx010001 +
b100xxxxx010001 e
b111 a
b111 .
b111 b
1$
b0 @
1(
#6900
0(
#6950
b1 @
1(
#7000
0(
#7050
0$
b10 @
1(
#7100
0(
#7150
b11 @
1(
#7200
0(
#7250
0S
0>
b0 C
b0 9
b0 O
b0 g
b0 &
b0 A
b10001 j
b10001 -
b10001 `
b0 p
bx )
bx E
bx ^
b101000100100011010001010000011110000110 1
b101000100100011010001010000011110000110 J
b101000100100011010001010000011110000110 P
b101000100100011010001010000011110000110 T
b0 =
b0 N
b10100 f
b10100 !
b10100 Q
1k
1/
b10100xxxxx010001 c
b10100xxxxx010001 +
b10100xxxxx010001 e
1d
1?
b1000 a
b1000 .
b1000 b
1$
b0 @
1(
#7300
0(
#7350
b1 @
1(
#7400
0(
#7450
0$
b10 @
1(
#7500
0(
#7550
b11 @
1(
#7600
0(
#7650
1S
1>
b101000100100011010001010000011110000110 C
b101000100100011010001010000011110000110 9
b101000100100011010001010000011110000110 O
1m
18
b0 j
b0 -
b0 `
b10 o
b10 <
b10 M
b1100 f
b1100 !
b1100 Q
0k
0/
b1100xxxxxxx0010 c
b1100xxxxxxx0010 +
b1100xxxxxxx0010 e
0d
0?
b10001 a
b10001 .
b10001 b
1$
b0 @
1(
#7700
0(
#7750
b1 @
1(
#7800
0(
#7850
0$
b10 @
1(
#7900
0(
#7950
b11 @
1(
#8000
0(
#8050
0S
0>
b0 C
b0 9
b0 O
0m
08
b11111 j
b11111 -
b11111 `
b0 o
b0 <
b0 M
b10100 f
b10100 !
b10100 Q
1k
1/
b10100xxxxx011111 c
b10100xxxxx011111 +
b10100xxxxx011111 e
1d
1?
b10010 a
b10010 .
b10010 b
1$
b0 @
1(
#8100
0(
#8150
b1 @
1(
#8200
0(
#8250
0$
b10 @
1(
#8300
0(
#8350
b11 @
1(
#8400
0(
#8450
b1000000100100011010001010110011110000000 F
b1000000100100011010001010110011110000000 ;
b1000000100100011010001010110011110000000 H
b1000000100100011010001010110011110000000 R
b1000000100100011010001010110011110000000 "
b1000000100100011010001010110011110000000 D
b1000000100100011010001010110011110000000 U
b101000100100011010001010000011110000110 C
b101000100100011010001010000011110000110 9
b101000100100011010001010000011110000110 O
1m
18
1l
12
b0 j
b0 -
b0 `
b10 p
b10 =
b10 N
b10 h
b10 '
b10 K
b1000 f
b1000 !
b1000 Q
0k
0/
b100000100010xxx c
b100000100010xxx +
b100000100010xxx e
0d
0?
b11111 a
b11111 .
b11111 b
1$
b0 @
1(
#8500
0(
#8550
b1 @
1(
#8600
0(
#8650
0$
b10 @
1(
#8700
0(
#8750
b11 @
1(
#8800
0(
#8850
b0 F
b0 ;
b0 H
b0 R
b0 "
b0 D
b0 U
b0 C
b0 9
b0 O
0m
08
0l
02
1k
1/
b100101 j
b100101 -
b100101 `
b0 p
b0 =
b0 N
b0 h
b0 '
b0 K
b10011 f
b10011 !
b10011 Q
b10011xxxxx100101 c
b10011xxxxx100101 +
b10011xxxxx100101 e
b100100011010001010110011110000000 ,
b100100011010001010110011110000000 L
b100100011010001010110011110000000 r
b101000100100011010001010000011110000110 1
b101000100100011010001010000011110000110 J
b101000100100011010001010000011110000110 P
b101000100100011010001010000011110000110 T
b100000 a
b100000 .
b100000 b
1$
b0 @
1(
#8900
0(
#8950
b1 @
1(
#9000
0(
#9050
0$
b10 @
1(
#9100
0(
#9150
b11 @
1(
#9200
0(
#9250
1S
1>
b1000000100100011010001010110011110000000 C
b1000000100100011010001010110011110000000 9
b1000000100100011010001010110011110000000 O
1m
18
0k
0/
b0 j
b0 -
b0 `
b1 o
b1000000100100011010001010110011110000000 0
b1000000100100011010001010110011110000000 B
b1000000100100011010001010110011110000000 I
b1 <
b1 M
b10 p
b1000000100100011010001010110011110000000 1
b1000000100100011010001010110011110000000 J
b1000000100100011010001010110011110000000 P
b1000000100100011010001010110011110000000 T
b10 =
b10 N
b11 f
b11 !
b11 Q
b11xxx00100001 c
b11xxx00100001 +
b11xxx00100001 e
b100101 a
b100101 .
b100101 b
1$
b0 @
1(
#9300
0(
#9350
b1 @
1(
#9400
0(
#9450
0$
b10 @
1(
#9500
0(
#9550
b11 @
1(
#9600
0(
#9650
0S
0>
b0 C
b0 9
b0 O
0m
08
b101001 j
b101001 -
b101001 `
b0 o
b101000100100011010001010000011110000110 0
b101000100100011010001010000011110000110 B
b101000100100011010001010000011110000110 I
b0 <
b0 M
b0 p
b101000100100011010001010000011110000110 1
b101000100100011010001010000011110000110 J
b101000100100011010001010000011110000110 P
b101000100100011010001010000011110000110 T
b0 =
b0 N
b10100 f
b10100 !
b10100 Q
1k
1/
b10100xxxxx101001 c
b10100xxxxx101001 +
b10100xxxxx101001 e
1d
1?
b100110 a
b100110 .
b100110 b
1$
b0 @
1(
#9700
0(
#9750
b1 @
1(
#9800
0(
#9850
0$
b10 @
1(
#9900
0(
#9950
b11 @
1(
#10000
0(
#10050
b1 F
b1 ;
b1 H
b1 R
b1 "
b1 D
b1 U
b1 C
b1 9
b1 O
1i
1*
1m
18
b0 j
b0 -
b0 `
b11 o
b1 0
b1 B
b1 I
b11 <
b11 M
b100 p
b0 )
b0 E
b0 ^
b1 1
b1 J
b1 P
b1 T
b100 =
b100 N
b10001 f
b10001 !
b10001 Q
0k
0/
b10001010000110xx c
b10001010000110xx +
b10001010000110xx e
0d
0?
b101001 a
b101001 .
b101001 b
1$
b0 @
1(
#10100
0(
#10150
b1 @
1(
