top_test.vcd
$date
	Fri Jul 14 18:19:22 2017
$end
$version
	Icarus Verilog
$end
$timescale
	1ps
$end
$scope module test $end
$scope module top0 $end
$var wire 5 ! alu_op [4:0] $end
$var wire 40 " alu_out [39:0] $end
$var wire 5 # btn [4:0] $end
$var wire 1 $ clk $end
$var wire 1 % comp $end
$var wire 40 & dec_data [39:0] $end
$var wire 4 ' dst [3:0] $end
$var wire 1 ( mclk $end
$var wire 40 ) mem_data [39:0] $end
$var wire 1 * mem_we $end
$var wire 16 + op [15:0] $end
$var wire 34 , ord [33:0] $end
$var wire 6 - pc_in [5:0] $end
$var wire 6 . pc_out [5:0] $end
$var wire 1 / pc_we $end
$var wire 40 0 reg_data0 [39:0] $end
$var wire 40 1 reg_data1 [39:0] $end
$var wire 1 2 reg_we $end
$var wire 1 3 rst_n $end
$var wire 7 4 seg0 [6:0] $end
$var wire 7 5 seg1 [6:0] $end
$var wire 7 6 seg2 [6:0] $end
$var wire 7 7 seg3 [6:0] $end
$var wire 1 8 sel1 $end
$var wire 40 9 sel1_out [39:0] $end
$var wire 1 : sel2 $end
$var wire 40 ; sel2_out [39:0] $end
$var wire 4 < src0 [3:0] $end
$var wire 4 = src1 [3:0] $end
$var wire 1 > zf $end
$var wire 1 ? zf_out $end
$scope module div0 $end
$var wire 1 $ clk $end
$var wire 1 ( mclk $end
$var wire 1 3 rst_n $end
$var reg 2 @ cnt [1:0] $end
$upscope $end
$scope module s1 $end
$var wire 40 A in0 [39:0] $end
$var wire 40 B in1 [39:0] $end
$var wire 1 8 sel $end
$var reg 40 C out [39:0] $end
$upscope $end
$scope module s2 $end
$var wire 40 D in0 [39:0] $end
$var wire 40 E in1 [39:0] $end
$var wire 1 : sel $end
$var reg 40 F out [39:0] $end
$upscope $end
$scope module r0 $end
$var wire 1 $ clk $end
$var wire 1 % comp $end
$var wire 40 G data [39:0] $end
$var wire 40 H data0 [39:0] $end
$var wire 40 I data1 [39:0] $end
$var wire 4 J dst [3:0] $end
$var wire 34 K ord [33:0] $end
$var wire 1 3 rst_n $end
$var wire 4 L src0 [3:0] $end
$var wire 4 M src1 [3:0] $end
$var wire 1 2 we $end
$upscope $end
$scope module a0 $end
$var wire 40 N in0 [39:0] $end
$var wire 40 O in1 [39:0] $end
$var wire 5 P op [4:0] $end
$var reg 40 Q out [39:0] $end
$var reg 1 R zf $end
$upscope $end
$scope module mem0 $end
$var wire 40 S addr [39:0] $end
$var wire 1 $ clk $end
$var wire 40 T in [39:0] $end
$var wire 8 U mem0 [7:0] $end
$var wire 8 V mem1 [7:0] $end
$var wire 8 W mem2 [7:0] $end
$var wire 8 X mem3 [7:0] $end
$var wire 8 Y mem4 [7:0] $end
$var wire 8 Z mem5 [7:0] $end
$var wire 8 [ mem6 [7:0] $end
$var wire 8 \ mem7 [7:0] $end
$var wire 40 ] out [39:0] $end
$var wire 1 3 rst_n $end
$var wire 1 * we $end
$var integer 32 ^ i [31:0] $end
$upscope $end
$scope module pc0 $end
$var wire 1 $ clk $end
$var wire 6 _ pc_in [5:0] $end
$var wire 1 3 rst_n $end
$var wire 1 / we $end
$var reg 6 ` pc_out [5:0] $end
$upscope $end
$scope module imem $end
$var wire 6 a pc [5:0] $end
$var reg 16 b op [15:0] $end
$upscope $end
$scope module zf0 $end
$var wire 1 $ clk $end
$var wire 1 3 rst_n $end
$var wire 1 > zf_in $end
$var reg 1 c zf_out $end
$upscope $end
$scope module dec1 $end
$var wire 16 d op [15:0] $end
$var wire 1 ? zf $end
$var reg 5 e alu_op [4:0] $end
$var reg 40 f data [39:0] $end
$var reg 4 g dst [3:0] $end
$var reg 1 h mem_we $end
$var reg 6 i pc_in [5:0] $end
$var reg 1 j pc_we $end
$var reg 1 k reg_we $end
$var reg 1 l sel1 $end
$var reg 1 m sel2 $end
$var reg 4 n src0 [3:0] $end
$var reg 4 o src1 [3:0] $end
$upscope $end
$scope module io0 $end
$var wire 1 p btn $end
$var wire 1 $ clk $end
$var wire 1 % comp $end
$var wire 34 q ord [33:0] $end
$var wire 1 3 rst_n $end
$var reg 4 r btn_flag [3:0] $end
$var reg 7 s seg0 [6:0] $end
$var reg 7 t seg1 [6:0] $end
$var reg 7 u seg2 [6:0] $end
$var reg 7 v seg3 [6:0] $end
$var reg 5 w sort_num [4:0] $end
$upscope $end
$upscope $end
$upscope $end
$enddefinitions $end
#0
$dumpvars
bx w
bx v
bx u
bx t
bx s
bx r
bz q
zp
bx o
bx n
xm
xl
xk
xj
bx i
xh
bx g
bx f
bx e
bx d
xc
bx b
bx a
bx `
bx _
bx ^
bx ]
bz \
bz [
bz Z
bz Y
bz X
bz W
bz V
bz U
bx T
bx S
xR
bx Q
bx P
bx O
bx N
bx M
bx L
bz K
bx J
bx I
bx H
bx G
bx F
bx E
bx D
bx C
bx B
bx A
bx @
x?
x>
bx =
bx <
bx ;
x:
bx 9
x8
bx 7
bx 6
bx 5
bx 4
03
x2
bx 1
bx 0
x/
bx .
bx -
bz ,
bx +
x*
bx )
0(
bx '
bx &
x%
x$
bx #
bx "
bx !
$end
#50
b100000100100011010000000101011110000110 F
b100000100100011010000000101011110000110 ;
b100000100100011010000000101011110000110 G
0R
0>
b100000100100011010000000101011110000110 Q
b100000100100011010000000101011110000110 "
b100000100100011010000000101011110000110 D
b100000100100011010000000101011110000110 T
b100000100100011010000000101011110000110 C
b100000100100011010000000101011110000110 9
b100000100100011010000000101011110000110 N
0h
0*
b0 f
b0 &
b0 A
0m
0:
1l
18
1k
12
b0 i
b0 -
b0 _
b0 n
b100000100100011010000000101011110000110 0
b100000100100011010000000101011110000110 B
b100000100100011010000000101011110000110 H
b0 <
b0 L
b0 o
b100000100100011010000000101011110000110 1
b100000100100011010000000101011110000110 I
b100000100100011010000000101011110000110 O
b100000100100011010000000101011110000110 S
b0 =
b0 M
b10 g
b10 '
b10 J
b10 e
b10 !
b10 P
0j
0/
b1000100000xxx b
b1000100000xxx +
b1000100000xxx d
b0 ,
b0 K
b0 q
0%
0c
0?
b0 w
b1 r
b0 `
b0 .
b0 a
b0 \
b0 [
b0 Z
b0 Y
b0 X
b0 W
b0 V
b0 U
b100000001 ^
1$
b0 @
1(
#100
0(
#150
b0 F
b0 ;
b0 G
b0 Q
b0 "
b0 D
b0 T
b11 o
b0 )
b0 E
b0 ]
b0 1
b0 I
b0 O
b0 S
b11 =
b11 M
b11 g
b11 '
b11 J
b10000 e
b10000 !
b10000 P
b1000000110011xxx b
b1000000110011xxx +
b1000000110011xxx d
b1 @
b1 `
b1 .
b1 a
1(
13
#200
0(
#250
0$
b10 @
1(
#300
0(
#350
b11 @
1(
#400
0(
#450
b1110000000000000000000000000000000 C
b1110000000000000000000000000000000 9
b1110000000000000000000000000000000 N
b1110000000000000000000000000000000 f
b1110000000000000000000000000000000 &
b1110000000000000000000000000000000 A
0l
08
0k
02
b0 g
b0 '
b0 J
b101 e
b101 !
b101 P
b10100111110xxx b
b10100111110xxx +
b10100111110xxx d
b0 v
b0 7
b0 u
b0 6
b0 t
b0 5
b0 s
b0 4
b10 `
b10 .
b10 a
1$
b0 @
1(
#500
0(
#550
b1 @
1(
#600
0(
#650
0$
b10 @
1(
#700
0(
#750
b11 @
1(
#800
0(
#850
b0 C
b0 9
b0 N
b0 f
b0 &
b0 A
b0 o
bx )
bx E
bx ]
b100000100100011010000000101011110000110 1
b100000100100011010000000101011110000110 I
b100000100100011010000000101011110000110 O
b100000100100011010000000101011110000110 S
b0 =
b0 M
b10100 e
b10100 !
b10100 P
b10100xxxxx000000 b
b10100xxxxx000000 +
b10100xxxxx000000 d
b11 `
b11 .
b11 a
1$
b0 @
1(
#900
0(
#950
b1 @
1(
#1000
0(
#1050
0$
b10 @
1(
#1100
0(
#1150
b11 @
1(
#1200
0(
#1250
b100000100100011010000000101011110000110 C
b100000100100011010000000101011110000110 9
b100000100100011010000000101011110000110 N
1l
18
1k
12
b11 o
b0 )
b0 E
b0 ]
b0 1
b0 I
b0 O
b0 S
b11 =
b11 M
b100 g
b100 '
b100 J
b110 e
b110 !
b110 P
b110010000110xx b
b110010000110xx +
b110010000110xx d
b100 `
b100 .
b100 a
1$
b0 @
1(
#1300
0(
#1350
b1 @
1(
#1400
0(
#1450
0$
b10 @
1(
#1500
0(
#1550
b11 @
1(
#1600
0(
#1650
1R
1>
b0 C
b0 9
b0 N
0l
08
0k
02
b100 o
b100 =
b100 M
b0 g
b0 '
b0 J
b100 e
b100 !
b100 P
b1000xxxx010000 b
b1000xxxx010000 +
b1000xxxx010000 d
b101 `
b101 .
b101 a
1$
b0 @
1(
#1700
0(
#1750
b1 @
1(
#1800
0(
#1850
0$
b10 @
1(
#1900
0(
#1950
b11 @
1(
#2000
0(
#2050
0R
0>
b1101 i
b1101 -
b1101 _
b0 o
bx )
bx E
bx ]
b100000100100011010000000101011110000110 1
b100000100100011010000000101011110000110 I
b100000100100011010000000101011110000110 O
b100000100100011010000000101011110000110 S
b0 =
b0 M
b10100 e
b10100 !
b10100 P
1j
1/
b10100xxxxx001101 b
b10100xxxxx001101 +
b10100xxxxx001101 d
1c
1?
b110 `
b110 .
b110 a
1$
b0 @
1(
#2100
0(
#2150
b1 @
1(
#2200
0(
#2250
0$
b10 @
1(
#2300
0(
#2350
b11 @
1(
#2400
0(
#2450
1l
18
b0 i
b0 -
b0 _
b10 n
b0 0
b0 B
b0 H
b10 <
b10 L
b1011 e
b1011 !
b1011 P
0j
0/
b1011xxxxxxx0010 b
b1011xxxxxxx0010 +
b1011xxxxxxx0010 d
0c
0?
b1101 `
b1101 .
b1101 a
1$
b0 @
1(
#2500
0(
#2550
b1 @
1(
#2600
0(
#2650
0$
b10 @
1(
#2700
0(
#2750
b11 @
1(
#2800
0(
#2850
0l
08
b11101 i
b11101 -
b11101 _
b0 n
b100000100100011010000000101011110000110 0
b100000100100011010000000101011110000110 B
b100000100100011010000000101011110000110 H
b0 <
b0 L
b10100 e
b10100 !
b10100 P
b10100xxxxx011101 b
b10100xxxxx011101 +
b10100xxxxx011101 d
b1110 `
b1110 .
b1110 a
1$
b0 @
1(
#2900
0(
#2950
b1 @
1(
#3000
0(
#3050
0$
b10 @
1(
#3100
0(
#3150
b11 @
1(
#3200
0(
#3250
b1 F
b1 ;
b1 G
b1 Q
b1 "
b1 D
b1 T
1k
12
b0 i
b0 -
b0 _
b11 o
b0 )
b0 E
b0 ]
b0 1
b0 I
b0 O
b0 S
b11 =
b11 M
b11 g
b11 '
b11 J
b0 e
b0 !
b0 P
b110011xxx b
b110011xxx +
b110011xxx d
b1111 `
b1111 .
b1111 a
1$
b0 @
1(
#3300
0(
#3350
b1 @
1(
#3400
0(
#3450
0$
b10 @
1(
#3500
0(
#3550
b11 @
1(
#3600
0(
#3650
0k
02
1j
1/
b0 o
bx )
bx E
bx ]
b0 =
b0 M
b0 g
b0 '
b0 J
b10011 e
b10011 !
b10011 P
b0 F
b0 ;
b0 G
b0 Q
b0 "
b0 D
b0 T
b10011xxxxx000000 b
b10011xxxxx000000 +
b10011xxxxx000000 d
b1 ,
b1 K
b1 q
b100000100100011010000000101011110000110 1
b100000100100011010000000101011110000110 I
b100000100100011010000000101011110000110 O
b100000100100011010000000101011110000110 S
b10000 `
b10000 .
b10000 a
1$
b0 @
1(
#3700
0(
#3750
b1 @
1(
#3800
0(
#3850
0$
b10 @
1(
#3900
0(
#3950
b11 @
1(
#4000
0(
#4050
b100000100100011010000000101011110000110 F
b100000100100011010000000101011110000110 ;
b100000100100011010000000101011110000110 G
b100000100100011010000000101011110000110 Q
b100000100100011010000000101011110000110 "
b100000100100011010000000101011110000110 D
b100000100100011010000000101011110000110 T
b100000100100011010000000101011110000110 C
b100000100100011010000000101011110000110 9
b100000100100011010000000101011110000110 N
1l
18
1k
12
0j
0/
b10 g
b10 '
b10 J
b10 e
b10 !
b10 P
b1000100000xxx b
b1000100000xxx +
b1000100000xxx d
b0 `
b0 .
b0 a
1$
b0 @
1(
#4100
0(
#4150
b1 @
1(
#4200
0(
#4250
0$
b10 @
1(
#4300
0(
#4350
b11 @
1(
#4400
0(
#4450
b1 F
b1 ;
b1 G
b1 Q
b1 "
b1 D
b1 T
b11 o
b0 )
b0 E
b0 ]
b1 1
b1 I
b1 O
b1 S
b11 =
b11 M
b11 g
b11 '
b11 J
b10000 e
b10000 !
b10000 P
b1000000110011xxx b
b1000000110011xxx +
b1000000110011xxx d
b1 `
b1 .
b1 a
1$
b0 @
1(
#4500
0(
#4550
b1 @
1(
#4600
0(
#4650
0$
b10 @
1(
#4700
0(
#4750
b11 @
1(
#4800
0(
#4850
b1110000000000000000000000000000000 C
b1110000000000000000000000000000000 9
b1110000000000000000000000000000000 N
b1110000000000000000000000000000000 f
b1110000000000000000000000000000000 &
b1110000000000000000000000000000000 A
0l
08
0k
02
b0 g
b0 '
b0 J
b101 e
b101 !
b101 P
b10100111110xxx b
b10100111110xxx +
b10100111110xxx d
b10 `
b10 .
b10 a
1$
b0 @
1(
#4900
0(
#4950
b1 @
1(
#5000
0(
#5050
0$
b10 @
1(
#5100
0(
#5150
b11 @
1(
#5200
0(
#5250
b0 F
b0 ;
b0 G
b0 Q
b0 "
b0 D
b0 T
b0 C
b0 9
b0 N
b0 f
b0 &
b0 A
b0 o
bx )
bx E
bx ]
b100000100100011010000000101011110000110 1
b100000100100011010000000101011110000110 I
b100000100100011010000000101011110000110 O
b100000100100011010000000101011110000110 S
b0 =
b0 M
b10100 e
b10100 !
b10100 P
b10100xxxxx000000 b
b10100xxxxx000000 +
b10100xxxxx000000 d
b11 `
b11 .
b11 a
1$
b0 @
1(
#5300
0(
#5350
b1 @
1(
#5400
0(
#5450
0$
b10 @
1(
#5500
0(
#5550
b11 @
1(
#5600
0(
#5650
b1 F
b1 ;
b1 G
b1 Q
b1 "
b1 D
b1 T
b100000100100011010000000101011110000110 C
b100000100100011010000000101011110000110 9
b100000100100011010000000101011110000110 N
1l
18
1k
12
b11 o
b0 )
b0 E
b0 ]
b1 1
b1 I
b1 O
b1 S
b11 =
b11 M
b100 g
b100 '
b100 J
b110 e
b110 !
b110 P
b110010000110xx b
b110010000110xx +
b110010000110xx d
b100 `
b100 .
b100 a
1$
b0 @
1(
#5700
0(
#5750
b1 @
1(
#5800
0(
#5850
0$
b10 @
1(
#5900
0(
#5950
b11 @
1(
#6000
0(
#6050
b0 C
b0 9
b0 N
0l
08
0k
02
b100 o
b100 =
b100 M
b0 g
b0 '
b0 J
b100 e
b100 !
b100 P
b1000xxxx010000 b
b1000xxxx010000 +
b1000xxxx010000 d
b101 `
b101 .
b101 a
1$
b0 @
1(
#6100
0(
#6150
b1 @
1(
#6200
0(
#6250
0$
b10 @
1(
#6300
0(
#6350
b11 @
1(
#6400
0(
#6450
b0 F
b0 ;
b0 G
b0 Q
b0 "
b0 D
b0 T
b1101 i
b1101 -
b1101 _
b0 o
bx )
bx E
bx ]
b100000100100011010000000101011110000110 1
b100000100100011010000000101011110000110 I
b100000100100011010000000101011110000110 O
b100000100100011010000000101011110000110 S
b0 =
b0 M
b10100 e
b10100 !
b10100 P
b10100xxxxx001101 b
b10100xxxxx001101 +
b10100xxxxx001101 d
b110 `
b110 .
b110 a
1$
b0 @
1(
#6500
0(
#6550
b1 @
1(
#6600
0(
#6650
0$
b10 @
1(
#6700
0(
#6750
b11 @
1(
#6800
0(
#6850
1R
1>
b1 C
b1 9
b1 N
b1 f
b1 &
b1 A
b0 i
b0 -
b0 _
b100 o
b0 )
b0 E
b0 ]
b1 1
b1 I
b1 O
b1 S
b100 =
b100 M
b100 e
b100 !
b100 P
b100xxxxx010001 b
b100xxxxx010001 +
b100xxxxx010001 d
b111 `
b111 .
b111 a
1$
b0 @
1(
#6900
0(
#6950
b1 @
1(
#7000
0(
#7050
0$
b10 @
1(
#7100
0(
#7150
b11 @
1(
#7200
0(
#7250
0R
0>
b0 C
b0 9
b0 N
b0 f
b0 &
b0 A
b10001 i
b10001 -
b10001 _
b0 o
bx )
bx E
bx ]
b100000100100011010000000101011110000110 1
b100000100100011010000000101011110000110 I
b100000100100011010000000101011110000110 O
b100000100100011010000000101011110000110 S
b0 =
b0 M
b10100 e
b10100 !
b10100 P
1j
1/
b10100xxxxx010001 b
b10100xxxxx010001 +
b10100xxxxx010001 d
1c
1?
b1000 `
b1000 .
b1000 a
1$
b0 @
1(
#7300
0(
#7350
b1 @
1(
#7400
0(
#7450
0$
b10 @
1(
#7500
0(
#7550
b11 @
1(
#7600
0(
#7650
1R
1>
b100000100100011010000000101011110000110 C
b100000100100011010000000101011110000110 9
b100000100100011010000000101011110000110 N
1l
18
b0 i
b0 -
b0 _
b10 n
b10 <
b10 L
b1100 e
b1100 !
b1100 P
0j
0/
b1100xxxxxxx0010 b
b1100xxxxxxx0010 +
b1100xxxxxxx0010 d
0c
0?
b10001 `
b10001 .
b10001 a
1$
b0 @
1(
#7700
0(
#7750
b1 @
1(
#7800
0(
#7850
0$
b10 @
1(
#7900
0(
#7950
b11 @
1(
#8000
0(
#8050
0R
0>
b0 C
b0 9
b0 N
0l
08
b11111 i
b11111 -
b11111 _
b0 n
b0 <
b0 L
b10100 e
b10100 !
b10100 P
1j
1/
b10100xxxxx011111 b
b10100xxxxx011111 +
b10100xxxxx011111 d
1c
1?
b10010 `
b10010 .
b10010 a
1$
b0 @
1(
#8100
0(
#8150
b1 @
1(
#8200
0(
#8250
0$
b10 @
1(
#8300
0(
#8350
b11 @
1(
#8400
0(
#8450
b111000100100011010010000101011100000110 F
b111000100100011010010000101011100000110 ;
b111000100100011010010000101011100000110 G
b111000100100011010010000101011100000110 Q
b111000100100011010010000101011100000110 "
b111000100100011010010000101011100000110 D
b111000100100011010010000101011100000110 T
b100000100100011010000000101011110000110 C
b100000100100011010000000101011110000110 9
b100000100100011010000000101011110000110 N
1l
18
1k
12
b0 i
b0 -
b0 _
b10 o
b10 =
b10 M
b10 g
b10 '
b10 J
b1000 e
b1000 !
b1000 P
0j
0/
b100000100010xxx b
b100000100010xxx +
b100000100010xxx d
0c
0?
b11111 `
b11111 .
b11111 a
1$
b0 @
1(
#8500
0(
#8550
b1 @
1(
#8600
0(
#8650
0$
b10 @
1(
#8700
0(
#8750
b11 @
1(
#8800
0(
#8850
b0 F
b0 ;
b0 G
b0 Q
b0 "
b0 D
b0 T
b0 C
b0 9
b0 N
0l
08
0k
02
1j
1/
b100101 i
b100101 -
b100101 _
b0 o
b0 =
b0 M
b0 g
b0 '
b0 J
b10011 e
b10011 !
b10011 P
b10011xxxxx100101 b
b10011xxxxx100101 +
b10011xxxxx100101 d
b100000100100011010000000101011110000110 1
b100000100100011010000000101011110000110 I
b100000100100011010000000101011110000110 O
b100000100100011010000000101011110000110 S
b100000 `
b100000 .
b100000 a
1$
b0 @
1(
#8900
0(
#8950
b1 @
1(
#9000
0(
#9050
0$
b10 @
1(
#9100
0(
#9150
b11 @
1(
#9200
0(
#9250
b1000000100100011010001010110011110000000 C
b1000000100100011010001010110011110000000 9
b1000000100100011010001010110011110000000 N
1l
18
0j
0/
b0 i
b0 -
b0 _
b1 n
b1000000100100011010001010110011110000000 0
b1000000100100011010001010110011110000000 B
b1000000100100011010001010110011110000000 H
b1 <
b1 L
b10 o
b111000100100011010010000101011100000110 1
b111000100100011010010000101011100000110 I
b111000100100011010010000101011100000110 O
b111000100100011010010000101011100000110 S
b10 =
b10 M
b11 e
b11 !
b11 P
b11xxx00100001 b
b11xxx00100001 +
b11xxx00100001 d
b100101 `
b100101 .
b100101 a
1$
b0 @
1(
#9300
0(
#9350
b1 @
1(
#9400
0(
#9450
0$
b10 @
1(
#9500
0(
#9550
b11 @
1(
#9600
0(
#9650
b0 C
b0 9
b0 N
0l
08
b101001 i
b101001 -
b101001 _
b0 n
b100000100100011010000000101011110000110 0
b100000100100011010000000101011110000110 B
b100000100100011010000000101011110000110 H
b0 <
b0 L
b0 o
b100000100100011010000000101011110000110 1
b100000100100011010000000101011110000110 I
b100000100100011010000000101011110000110 O
b100000100100011010000000101011110000110 S
b0 =
b0 M
b10100 e
b10100 !
b10100 P
b10100xxxxx101001 b
b10100xxxxx101001 +
b10100xxxxx101001 d
b100110 `
b100110 .
b100110 a
1$
b0 @
1(
#9700
0(
#9750
b1 @
1(
#9800
0(
#9850
0$
b10 @
1(
#9900
0(
#9950
b11 @
1(
#10000
0(
#10050
b1000000000000000000000000000001 F
b1000000000000000000000000000001 ;
b1000000000000000000000000000001 G
b1000000000000000000000000000001 Q
b1000000000000000000000000000001 "
b1000000000000000000000000000001 D
b1000000000000000000000000000001 T
1k
12
b0 i
b0 -
b0 _
b11 o
b0 )
b0 E
b0 ]
b1 1
b1 I
b1 O
b1 S
b11 =
b11 M
b11 g
b11 '
b11 J
b1 e
b1 !
b1 P
b100110011xxx b
b100110011xxx +
b100110011xxx d
b100111 `
b100111 .
b100111 a
1$
b0 @
1(
#10100
0(
#10150
b1 @
1(
#10200
0(
#10250
0$
b10 @
1(
#10300
0(
#10350
b11 @
1(
#10400
0(
#10450
0k
02
1j
1/
b10 i
b10 -
b10 _
b0 o
b0 =
b0 M
b0 g
b0 '
b0 J
b10011 e
b10011 !
b10011 P
b0 F
b0 ;
b0 G
b0 Q
b0 "
b0 D
b0 T
b10011xxxx0000010 b
b10011xxxx0000010 +
b10011xxxx0000010 d
b1000000000000000000000000000001 ,
b1000000000000000000000000000001 K
b1000000000000000000000000000001 q
bx )
bx E
bx ]
b100000100100011010000000101011110000110 1
b100000100100011010000000101011110000110 I
b100000100100011010000000101011110000110 O
b100000100100011010000000101011110000110 S
b101000 `
b101000 .
b101000 a
1$
b0 @
1(
#10500
0(
#10550
b1 @
1(
#10600
0(
#10650
0$
b10 @
1(
#10700
0(
#10750
b11 @
1(
#10800
0(
#10850
b1110000000000000000000000000000000 C
b1110000000000000000000000000000000 9
b1110000000000000000000000000000000 N
b1110000000000000000000000000000000 f
b1110000000000000000000000000000000 &
b1110000000000000000000000000000000 A
0j
0/
b0 i
b0 -
b0 _
b11 o
b1000000000000000000000000000001 1
b1000000000000000000000000000001 I
b1000000000000000000000000000001 O
b1000000000000000000000000000001 S
b11 =
b11 M
b101 e
b101 !
b101 P
b10100111110xxx b
b10100111110xxx +
b10100111110xxx d
b10 `
b10 .
b10 a
1$
b0 @
1(
#10900
0(
#10950
b1 @
1(
#11000
0(
#11050
0$
b10 @
1(
#11100
0(
#11150
b11 @
1(
#11200
0(
#11250
b0 C
b0 9
b0 N
b0 f
b0 &
b0 A
b0 o
b100000100100011010000000101011110000110 1
b100000100100011010000000101011110000110 I
b100000100100011010000000101011110000110 O
b100000100100011010000000101011110000110 S
b0 =
b0 M
b10100 e
b10100 !
b10100 P
b10100xxxxx000000 b
b10100xxxxx000000 +
b10100xxxxx000000 d
b11 `
b11 .
b11 a
1$
b0 @
1(
#11300
0(
#11350
b1 @
1(
#11400
0(
#11450
0$
b10 @
1(
#11500
0(
#11550
b11 @
1(
#11600
0(
#11650
b100000100100011010000000101011110000110 C
b100000100100011010000000101011110000110 9
b100000100100011010000000101011110000110 N
1l
18
1k
12
b11 o
b1000000000000000000000000000001 1
b1000000000000000000000000000001 I
b1000000000000000000000000000001 O
b1000000000000000000000000000001 S
b11 =
b11 M
b100 g
b100 '
b100 J
b110 e
b110 !
b110 P
b110010000110xx b
b110010000110xx +
b110010000110xx d
b100 `
b100 .
b100 a
1$
b0 @
1(
#11700
0(
#11750
b1 @
1(
#11800
0(
#11850
0$
b10 @
1(
#11900
0(
#11950
b11 @
1(
#12000
0(
#12050
1R
1>
b0 C
b0 9
b0 N
0l
08
0k
02
b100 o
b0 )
b0 E
b0 ]
b0 1
b0 I
b0 O
b0 S
b100 =
b100 M
b0 g
b0 '
b0 J
b100 e
b100 !
b100 P
b1000xxxx010000 b
b1000xxxx010000 +
b1000xxxx010000 d
b101 `
b101 .
b101 a
1$
b0 @
1(
#12100
0(
#12150
b1 @
1(
#12200
0(
#12250
0$
b10 @
1(
#12300
0(
#12350
b11 @
1(
#12400
0(
#12450
0R
0>
b1101 i
b1101 -
b1101 _
b0 o
bx )
bx E
bx ]
b100000100100011010000000101011110000110 1
b100000100100011010000000101011110000110 I
b100000100100011010000000101011110000110 O
b100000100100011010000000101011110000110 S
b0 =
b0 M
b10100 e
b10100 !
b10100 P
1j
1/
b10100xxxxx001101 b
b10100xxxxx001101 +
b10100xxxxx001101 d
1c
1?
b110 `
b110 .
b110 a
1$
b0 @
1(
#12500
0(
#12550
b1 @
1(
#12600
0(
#12650
0$
b10 @
1(
#12700
0(
#12750
b11 @
1(
#12800
0(
#12850
1R
1>
b111000100100011010010000101011100000110 C
b111000100100011010010000101011100000110 9
b111000100100011010010000101011100000110 N
1l
18
b0 i
b0 -
b0 _
b10 n
b111000100100011010010000101011100000110 0
b111000100100011010010000101011100000110 B
b111000100100011010010000101011100000110 H
b10 <
b10 L
b1011 e
b1011 !
b1011 P
0j
0/
b1011xxxxxxx0010 b
b1011xxxxxxx0010 +
b1011xxxxxxx0010 d
0c
0?
b1101 `
b1101 .
b1101 a
1$
b0 @
1(
#12900
0(
#12950
b1 @
1(
#13000
0(
#13050
0$
b10 @
1(
#13100
0(
#13150
b11 @
1(
#13200
0(
#13250
0R
0>
b0 C
b0 9
b0 N
0l
08
b11101 i
b11101 -
b11101 _
b0 n
b100000100100011010000000101011110000110 0
b100000100100011010000000101011110000110 B
b100000100100011010000000101011110000110 H
b0 <
b0 L
b10100 e
b10100 !
b10100 P
1j
1/
b10100xxxxx011101 b
b10100xxxxx011101 +
b10100xxxxx011101 d
1c
1?
b1110 `
b1110 .
b1110 a
1$
b0 @
1(
#13300
0(
#13350
b1 @
1(
#13400
0(
#13450
0$
b10 @
1(
#13500
0(
#13550
b11 @
1(
#13600
0(
#13650
b100000100100011010000000101011110000110 F
b100000100100011010000000101011110000110 ;
b100000100100011010000000101011110000110 G
b100000100100011010000000101011110000110 Q
b100000100100011010000000101011110000110 "
b100000100100011010000000101011110000110 D
b100000100100011010000000101011110000110 T
b100000100100011010000000101011110000110 C
b100000100100011010000000101011110000110 9
b100000100100011010000000101011110000110 N
1l
18
1k
12
b0 i
b0 -
b0 _
b10 o
b111000100100011010010000101011100000110 1
b111000100100011010010000101011100000110 I
b111000100100011010010000101011100000110 O
b111000100100011010010000101011100000110 S
b10 =
b10 M
b10 g
b10 '
b10 J
b111 e
b111 !
b111 P
0j
0/
b11100100010xxx b
b11100100010xxx +
b11100100010xxx d
0c
0?
b11101 `
b11101 .
b11101 a
1$
b0 @
1(
#13700
0(
#13750
b1 @
1(
#13800
0(
#13850
0$
b10 @
1(
#13900
0(
#13950
b11 @
1(
#14000
0(
#14050
b0 C
b0 9
b0 N
0l
08
0k
02
1j
1/
b100101 i
b100101 -
b100101 _
b0 o
b0 =
b0 M
b0 g
b0 '
b0 J
b10011 e
b10011 !
b10011 P
b0 F
b0 ;
b0 G
b0 Q
b0 "
b0 D
b0 T
b10011xxxxx100101 b
b10011xxxxx100101 +
b10011xxxxx100101 d
b100000100100011010000000101011110000110 1
b100000100100011010000000101011110000110 I
b100000100100011010000000101011110000110 O
b100000100100011010000000101011110000110 S
b11110 `
b11110 .
b11110 a
1$
b0 @
1(
#14100
0(
#14150
b1 @
1(
#14200
0(
#14250
0$
b10 @
1(
#14300
0(
#14350
b11 @
1(
#14400
0(
#14450
b1000000100100011010001010110011110000000 C
b1000000100100011010001010110011110000000 9
b1000000100100011010001010110011110000000 N
1l
18
0j
0/
b0 i
b0 -
b0 _
b1 n
b1000000100100011010001010110011110000000 0
b1000000100100011010001010110011110000000 B
b1000000100100011010001010110011110000000 H
b1 <
b1 L
b10 o
b10 =
b10 M
b11 e
b11 !
b11 P
b11xxx00100001 b
b11xxx00100001 +
b11xxx00100001 d
b100101 `
b100101 .
b100101 a
1$
b0 @
1(
#14500
0(
#14550
b1 @
1(
#14600
0(
#14650
0$
b10 @
1(
#14700
0(
#14750
b11 @
1(
#14800
0(
#14850
b0 C
b0 9
b0 N
0l
08
b101001 i
b101001 -
b101001 _
b0 n
b100000100100011010000000101011110000110 0
b100000100100011010000000101011110000110 B
b100000100100011010000000101011110000110 H
b0 <
b0 L
b0 o
b0 =
b0 M
b10100 e
b10100 !
b10100 P
b10100xxxxx101001 b
b10100xxxxx101001 +
b10100xxxxx101001 d
b100110 `
b100110 .
b100110 a
1$
b0 @
1(
#14900
0(
#14950
b1 @
1(
#15000
0(
#15050
0$
b10 @
1(
#15100
0(
#15150
b11 @
1(
#15200
0(
#15250
b10000000000000000000000000000001 F
b10000000000000000000000000000001 ;
b10000000000000000000000000000001 G
b10000000000000000000000000000001 Q
b10000000000000000000000000000001 "
b10000000000000000000000000000001 D
b10000000000000000000000000000001 T
1k
12
b0 i
b0 -
b0 _
b11 o
b1000000000000000000000000000001 1
b1000000000000000000000000000001 I
b1000000000000000000000000000001 O
b1000000000000000000000000000001 S
b11 =
b11 M
b11 g
b11 '
b11 J
b1 e
b1 !
b1 P
b100110011xxx b
b100110011xxx +
b100110011xxx d
b100111 `
b100111 .
b100111 a
1$
b0 @
1(
#15300
0(
#15350
b1 @
1(
#15400
0(
#15450
0$
b10 @
1(
#15500
0(
#15550
b11 @
1(
#15600
0(
