top_test.vcd
$date
	Tue Jul 11 17:06:34 2017
$end
$version
	Icarus Verilog
$end
$timescale
	1ps
$end
$scope module test $end
$scope module top0 $end
$var wire 5 ! alu_op [4:0] $end
$var wire 40 " alu_out [39:0] $end
$var wire 1 # clk $end
$var wire 40 $ dec_data [39:0] $end
$var wire 5 % dst [4:0] $end
$var wire 40 & mem_data [39:0] $end
$var wire 1 ' mem_we $end
$var wire 16 ( op [15:0] $end
$var wire 6 ) pc_in [5:0] $end
$var wire 6 * pc_out [5:0] $end
$var wire 1 + pc_we $end
$var wire 40 , reg_data0 [39:0] $end
$var wire 40 - reg_data1 [39:0] $end
$var wire 1 . reg_we $end
$var wire 1 / rst_n $end
$var wire 1 0 sel1 $end
$var wire 40 1 sel1_out [39:0] $end
$var wire 1 2 sel2 $end
$var wire 40 3 sel2_out [39:0] $end
$var wire 5 4 src0 [4:0] $end
$var wire 5 5 src1 [4:0] $end
$var wire 1 6 zf $end
$var wire 1 7 zf_out $end
$scope module s1 $end
$var wire 40 8 in0 [39:0] $end
$var wire 40 9 in1 [39:0] $end
$var wire 1 0 sel $end
$var reg 40 : out [39:0] $end
$upscope $end
$scope module s2 $end
$var wire 40 ; in0 [39:0] $end
$var wire 40 < in1 [39:0] $end
$var wire 1 2 sel $end
$var reg 40 = out [39:0] $end
$upscope $end
$scope module r0 $end
$var wire 1 # clk $end
$var wire 40 > data [39:0] $end
$var wire 40 ? data0 [39:0] $end
$var wire 40 @ data1 [39:0] $end
$var wire 5 A dst [4:0] $end
$var wire 1 / rst_n $end
$var wire 5 B src0 [4:0] $end
$var wire 5 C src1 [4:0] $end
$var wire 1 . we $end
$upscope $end
$scope module a0 $end
$var wire 40 D in0 [39:0] $end
$var wire 40 E in1 [39:0] $end
$var wire 5 F op [4:0] $end
$var reg 40 G out [39:0] $end
$var reg 1 H zf $end
$upscope $end
$scope module mem0 $end
$var wire 40 I addr [39:0] $end
$var wire 1 # clk $end
$var wire 40 J in [39:0] $end
$var wire 8 K mem0 [7:0] $end
$var wire 8 L mem1 [7:0] $end
$var wire 8 M mem2 [7:0] $end
$var wire 8 N mem3 [7:0] $end
$var wire 8 O mem4 [7:0] $end
$var wire 8 P mem5 [7:0] $end
$var wire 8 Q mem6 [7:0] $end
$var wire 8 R mem7 [7:0] $end
$var wire 40 S out [39:0] $end
$var wire 1 / rst_n $end
$var wire 1 ' we $end
$var integer 32 T i [31:0] $end
$upscope $end
$scope module pc0 $end
$var wire 1 # clk $end
$var wire 6 U pc_in [5:0] $end
$var wire 1 / rst_n $end
$var wire 1 + we $end
$var reg 6 V pc_out [5:0] $end
$upscope $end
$scope module imem $end
$var wire 6 W pc [5:0] $end
$var reg 16 X op [15:0] $end
$upscope $end
$scope module zf0 $end
$var wire 1 # clk $end
$var wire 1 / rst_n $end
$var wire 1 6 zf_in $end
$var reg 1 Y zf_out $end
$upscope $end
$scope module dec1 $end
$var wire 16 Z op [15:0] $end
$var wire 1 7 zf $end
$var reg 5 [ alu_op [4:0] $end
$var reg 40 \ data [39:0] $end
$var reg 5 ] dst [4:0] $end
$var reg 1 ^ mem_we $end
$var reg 6 _ pc_in [5:0] $end
$var reg 1 ` pc_we $end
$var reg 1 a reg_we $end
$var reg 1 b sel1 $end
$var reg 1 c sel2 $end
$var reg 5 d src0 [4:0] $end
$var reg 5 e src1 [4:0] $end
$upscope $end
$upscope $end
$upscope $end
$enddefinitions $end
#0
$dumpvars
bx e
bx d
xc
xb
xa
x`
bx _
x^
bx ]
bx \
bx [
bx Z
xY
bx X
bx W
bx V
bx U
bx T
bx S
bz R
bz Q
bz P
bz O
bz N
bz M
bz L
bz K
bx J
bx I
xH
bx G
bx F
bx E
bx D
bx C
bx B
bx A
bx @
bx ?
bx >
bx =
bx <
bx ;
bx :
bx 9
bx 8
x7
x6
bx 5
bx 4
bx 3
x2
bx 1
x0
0/
x.
bx -
bx ,
x+
bx *
bx )
bx (
x'
bx &
bx %
bx $
0#
bx "
bx !
$end
#50
0`
0+
b1000100000xxx X
b1000100000xxx (
b1000100000xxx Z
0Y
07
b0 V
b0 *
b0 W
b0 R
b0 Q
b0 P
b0 O
b0 N
b0 M
b0 L
b0 K
b100000001 T
1#
#100
0#
#150
b101000100100011010001010000011110000110 :
b101000100100011010001010000011110000110 1
b101000100100011010001010000011110000110 D
0^
0'
b0xx \
b0xx $
b0xx 8
0c
02
1b
10
1a
1.
b0 _
b0 )
b0 U
b0 d
b101000100100011010001010000011110000110 ,
b101000100100011010001010000011110000110 9
b101000100100011010001010000011110000110 ?
b0 4
b0 B
b1111 e
b1111 5
b1111 C
b11 ]
b11 %
b11 A
b101 [
b101 !
b101 F
b10100111111xxx X
b10100111111xxx (
b10100111111xxx Z
xY
x7
b1 V
b1 *
b1 W
1#
1/
#200
0#
#250
0H
06
b0 G
b0 "
b0 ;
b0 J
b0 :
b0 1
b0 D
b0 \
b0 $
b0 8
1c
12
0b
00
b0x000 e
b0x000 5
b0x000 C
b0xxxx ]
b0xxxx %
b0xxxx A
b10011 [
b10011 !
b10011 F
b10011xxxxx000000 X
b10011xxxxx000000 (
b10011xxxxx000000 Z
b10 V
b10 *
b10 W
1#
#300
0#
#350
b100000000000000000000000000000000000 G
b100000000000000000000000000000000000 "
b100000000000000000000000000000000000 ;
b100000000000000000000000000000000000 J
b100000000000000000000000000000000000 =
b100000000000000000000000000000000000 3
b100000000000000000000000000000000000 >
bx :
bx 1
bx D
0c
02
1b
10
0a
0.
b10xx d
bx ,
bx 9
bx ?
b10xx 4
b10xx B
b1 e
b1000000100100011010001010110011110000000 -
b1000000100100011010001010110011110000000 @
b1000000100100011010001010110011110000000 E
b1000000100100011010001010110011110000000 I
b1 5
b1 C
b0 ]
b0 %
b0 A
b110 [
b110 !
b110 F
b110010000110xx X
b110010000110xx (
b110010000110xx Z
0Y
07
b11 V
b11 *
b11 W
1#
#400
0#
#450
xH
x6
b101000100100011010001010000011110000110 :
b101000100100011010001010000011110000110 1
b101000100100011010001010000011110000110 D
1a
1.
b0 d
b101000100100011010001010000011110000110 ,
b101000100100011010001010000011110000110 9
b101000100100011010001010000011110000110 ?
b0 4
b0 B
b0x010 e
bx -
bx @
bx E
bx I
b0x010 5
b0x010 C
b0xxx ]
b0xxx %
b0xxx A
b100 [
b100 !
b100 F
b1000xxxx010000 X
b1000xxxx010000 (
b1000xxxx010000 Z
b100 V
b100 *
b100 W
1#
#500
0#
#550
0H
06
b0 G
b0 "
b0 ;
b0 J
bx =
bx 3
bx >
b0 :
b0 1
b0 D
1c
12
0b
00
b0x001 e
b0x001 5
b0x001 C
b0xxxx ]
b0xxxx %
b0xxxx A
b10011 [
b10011 !
b10011 F
b10011xxxxx001100 X
b10011xxxxx001100 (
b10011xxxxx001100 Z
xY
x7
b101 V
b101 *
b101 W
1#
#600
0#
#650
xH
x6
b0 =
b0 3
b0 >
b101000100100011010001010000011110000110 :
b101000100100011010001010000011110000110 1
b101000100100011010001010000011110000110 D
b1 \
b1 $
b1 8
0c
02
1b
10
b0x010 e
b0x010 5
b0x010 C
b100 [
b100 !
b100 F
b100xxxxx010001 X
b100xxxxx010001 (
b100xxxxx010001 Z
0Y
07
b110 V
b110 *
b110 W
1#
#700
0#
#750
0H
06
bx =
bx 3
bx >
b0 :
b0 1
b0 D
b0 \
b0 $
b0 8
1c
12
0b
00
b0x001 e
b0x001 5
b0x001 C
b10011 [
b10011 !
b10011 F
b10011xxxxx001111 X
b10011xxxxx001111 (
b10011xxxxx001111 Z
xY
x7
b111 V
b111 *
b111 W
1#
#800
0#
#850
xH
x6
b0 =
b0 3
b0 >
b101000100100011010001010000011110000110 :
b101000100100011010001010000011110000110 1
b101000100100011010001010000011110000110 D
b10 \
b10 $
b10 8
0c
02
1b
10
b0x010 e
b0x010 5
b0x010 C
b100 [
b100 !
b100 F
b100xxxxx010010 X
b100xxxxx010010 (
b100xxxxx010010 Z
0Y
07
b1000 V
b1000 *
b1000 W
1#
#900
0#
#950
0H
06
bx =
bx 3
bx >
b0 :
b0 1
b0 D
b0 \
b0 $
b0 8
1c
12
0b
00
b10011 [
b10011 !
b10011 F
b10011xxxxx010010 X
b10011xxxxx010010 (
b10011xxxxx010010 Z
xY
x7
b1001 V
b1001 *
b1001 W
1#
#1000
0#
#1050
xH
x6
b0 =
b0 3
b0 >
b101000100100011010001010000011110000110 :
b101000100100011010001010000011110000110 1
b101000100100011010001010000011110000110 D
b11 \
b11 $
b11 8
0c
02
1b
10
b100 [
b100 !
b100 F
b100xxxxx010011 X
b100xxxxx010011 (
b100xxxxx010011 Z
0Y
07
b1010 V
b1010 *
b1010 W
1#
#1100
0#
#1150
0H
06
bx =
bx 3
bx >
b0 :
b0 1
b0 D
b0 \
b0 $
b0 8
1c
12
0b
00
b10011 [
b10011 !
b10011 F
b10011xxxxx010101 X
b10011xxxxx010101 (
b10011xxxxx010101 Z
xY
x7
b1011 V
b1011 *
b1011 W
1#
#1200
0#
#1250
1H
16
b0xxx0 :
b0xxx0 1
b0xxx0 D
b0 =
b0 3
b0 >
b0xxx0 \
b0xxx0 $
b0xxx0 8
0c
02
0a
0.
b0xxxx e
b0xxxx 5
b0xxxx C
b0 ]
b0 %
b0 A
b1011 [
b1011 !
b1011 F
b1011xxxxxxx0010 X
b1011xxxxxxx0010 (
b1011xxxxxxx0010 Z
0Y
07
b1100 V
b1100 *
b1100 W
1#
#1300
0#
#1350
0H
06
b0 :
b0 1
b0 D
bx =
bx 3
bx >
b0 \
b0 $
b0 8
1c
12
1a
1.
b0x011 e
b0x011 5
b0x011 C
b0xxxx ]
b0xxxx %
b0xxxx A
b10011 [
b10011 !
b10011 F
b10011xxxxx011000 X
b10011xxxxx011000 (
b10011xxxxx011000 Z
1Y
17
b1101 V
b1101 *
b1101 W
1#
#1400
0#
#1450
b0x000 e
b0x000 5
b0x000 C
b10010 [
b10010 !
b10010 F
b10010xxxxx000000 X
b10010xxxxx000000 (
b10010xxxxx000000 Z
0Y
07
b1110 V
b1110 *
b1110 W
1#
#1500
0#
#1550
1H
16
b0 =
b0 3
b0 >
b101000100100011010001010000011110000110 :
b101000100100011010001010000011110000110 1
b101000100100011010001010000011110000110 D
0c
02
1b
10
b0xxx0 e
b0xxx0 5
b0xxx0 C
b1100 [
b1100 !
b1100 F
b1100xxxxxxx0010 X
b1100xxxxxxx0010 (
b1100xxxxxxx0010 Z
b1111 V
b1111 *
b1111 W
1#
#1600
0#
#1650
0H
06
bx =
bx 3
bx >
b0 :
b0 1
b0 D
1c
12
0b
00
b0x011 e
b0x011 5
b0x011 C
b10011 [
b10011 !
b10011 F
b10011xxxxx011010 X
b10011xxxxx011010 (
b10011xxxxx011010 Z
1Y
17
b10000 V
b10000 *
b10000 W
1#
#1700
0#
#1750
b0x000 e
b0x000 5
b0x000 C
b0xxx ]
b0xxx %
b0xxx A
b10010 [
b10010 !
b10010 F
b100100xxxx000000 X
b100100xxxx000000 (
b100100xxxx000000 Z
0Y
07
b10001 V
b10001 *
b10001 W
1#
#1800
0#
#1850
1H
16
b0 =
b0 3
b0 >
b101000100100011010001010000011110000110 :
b101000100100011010001010000011110000110 1
b101000100100011010001010000011110000110 D
0c
02
1b
10
b0xxx0 e
b0xxx0 5
b0xxx0 C
b0xxxx ]
b0xxxx %
b0xxxx A
b1101 [
b1101 !
b1101 F
b1101xxxxxxx0010 X
b1101xxxxxxx0010 (
b1101xxxxxxx0010 Z
b10010 V
b10010 *
b10010 W
1#
#1900
0#
#1950
0H
06
bx =
bx 3
bx >
b0 :
b0 1
b0 D
1c
12
0b
00
b0x011 e
b0x011 5
b0x011 C
b10011 [
b10011 !
b10011 F
b10011xxxxx011100 X
b10011xxxxx011100 (
b10011xxxxx011100 Z
1Y
17
b10011 V
b10011 *
b10011 W
1#
#2000
0#
#2050
b0x000 e
b0x000 5
b0x000 C
b10010 [
b10010 !
b10010 F
b10010xxxxx000000 X
b10010xxxxx000000 (
b10010xxxxx000000 Z
0Y
07
b10100 V
b10100 *
b10100 W
1#
#2100
0#
#2150
1H
16
b0xxx0 e
b0xxx0 5
b0xxx0 C
b1110 [
b1110 !
b1110 F
b1110xxxxxxx0010 X
b1110xxxxxxx0010 (
b1110xxxxxxx0010 Z
b10101 V
b10101 *
b10101 W
1#
#2200
0#
#2250
0H
06
b0x011 e
b0x011 5
b0x011 C
b10011 [
b10011 !
b10011 F
b10011xxxxx011110 X
b10011xxxxx011110 (
b10011xxxxx011110 Z
1Y
17
b10110 V
b10110 *
b10110 W
1#
#2300
0#
#2350
b0x000 e
b0x000 5
b0x000 C
b0xx ]
b0xx %
b0xx A
b10010 [
b10010 !
b10010 F
b1001000xxx000000 X
b1001000xxx000000 (
b1001000xxx000000 Z
0Y
07
b10111 V
b10111 *
b10111 W
1#
#2400
0#
#2450
bx :
bx 1
bx D
b0 =
b0 3
b0 >
0c
02
1b
10
0a
0.
b0xxx d
bx ,
bx 9
bx ?
b0xxx 4
b0xxx B
b10 e
b0 &
b0 <
b0 S
b0 -
b0 @
b0 E
b0 I
b10 5
b10 C
b0 ]
b0 %
b0 A
b111 [
b111 !
b111 F
b11101000100xxx X
b11101000100xxx (
b11101000100xxx Z
b11000 V
b11000 *
b11000 W
1#
#2500
0#
#2550
b0 :
b0 1
b0 D
bx =
bx 3
bx >
1c
12
0b
00
1a
1.
b0 d
b101000100100011010001010000011110000110 ,
b101000100100011010001010000011110000110 9
b101000100100011010001010000011110000110 ?
b0 4
b0 B
b0x100 e
bx &
bx <
bx S
bx -
bx @
bx E
bx I
b0x100 5
b0x100 C
b0xxxx ]
b0xxxx %
b0xxxx A
b10010 [
b10010 !
b10010 F
b10010xxxxx100000 X
b10010xxxxx100000 (
b10010xxxxx100000 Z
b11001 V
b11001 *
b11001 W
1#
#2600
0#
#2650
b0xx000000000000000 :
b0xx000000000000000 1
b0xx000000000000000 D
b0 =
b0 3
b0 >
b0xx000000000000000 \
b0xx000000000000000 $
b0xx000000000000000 8
0c
02
0a
0.
b100x e
b100x 5
b100x C
b0 ]
b0 %
b0 A
b1000 [
b1000 !
b1000 F
b100001000100xxx X
b100001000100xxx (
b100001000100xxx Z
b11010 V
b11010 *
b11010 W
1#
#2700
0#
#2750
b0 :
b0 1
b0 D
bx =
bx 3
bx >
b0 \
b0 $
b0 8
1c
12
1a
1.
b0x100 e
b0x100 5
b0x100 C
b0xxxx ]
b0xxxx %
b0xxxx A
b10010 [
b10010 !
b10010 F
b10010xxxxx100000 X
b10010xxxxx100000 (
b10010xxxxx100000 Z
b11011 V
b11011 *
b11011 W
1#
#2800
0#
#2850
b0xx000000000000000 :
b0xx000000000000000 1
b0xx000000000000000 D
b0 =
b0 3
b0 >
b0xx000000000000000 \
b0xx000000000000000 $
b0xx000000000000000 8
0c
02
0a
0.
b100x e
b100x 5
b100x C
b0 ]
b0 %
b0 A
b1001 [
b1001 !
b1001 F
b100101000100xxx X
b100101000100xxx (
b100101000100xxx Z
b11100 V
b11100 *
b11100 W
1#
#2900
0#
#2950
b0 :
b0 1
b0 D
bx =
bx 3
bx >
b0 \
b0 $
b0 8
1c
12
1a
1.
b0x100 e
b0x100 5
b0x100 C
b0xxxx ]
b0xxxx %
b0xxxx A
b10010 [
b10010 !
b10010 F
b10010xxxxx100000 X
b10010xxxxx100000 (
b10010xxxxx100000 Z
b11101 V
b11101 *
b11101 W
1#
#3000
0#
#3050
b100 :
b100 1
b100 D
b0 =
b0 3
b0 >
b100 \
b100 $
b100 8
0c
02
0a
0.
b100 e
b0 &
b0 <
b0 S
b0 -
b0 @
b0 E
b0 I
b100 5
b100 C
b0 ]
b0 %
b0 A
b1010 [
b1010 !
b1010 F
b101001000100xxx X
b101001000100xxx (
b101001000100xxx Z
b11110 V
b11110 *
b11110 W
1#
#3100
0#
#3150
b0 :
b0 1
b0 D
bx =
bx 3
bx >
b0 \
b0 $
b0 8
1c
12
1a
1.
b0x100 e
bx &
bx <
bx S
bx -
bx @
bx E
bx I
b0x100 5
b0x100 C
b0xxxx ]
b0xxxx %
b0xxxx A
b10010 [
b10010 !
b10010 F
b10010xxxxx100000 X
b10010xxxxx100000 (
b10010xxxxx100000 Z
b11111 V
b11111 *
b11111 W
1#
#3200
0#
#3250
b11xxx00100001 X
b11xxx00100001 (
b11xxx00100001 Z
b100000 V
b100000 *
b100000 W
1#
#3300
0#
#3350
b10011 [
b10011 !
b10011 F
b10011xxxxx100110 X
b10011xxxxx100110 (
b10011xxxxx100110 Z
b100001 V
b100001 *
b100001 W
1#
#3400
0#
#3450
bx G
bx "
bx ;
bx J
bx =
bx 3
bx >
0c
02
b11 e
b11 5
b11 C
b11 ]
b11 %
b11 A
b0 [
b0 !
b0 F
b110011xxx X
b110011xxx (
b110011xxx Z
b100010 V
b100010 *
b100010 W
1#
#3500
0#
#3550
b1 [
b1 !
b1 F
b100110011xxx X
b100110011xxx (
b100110011xxx Z
b100011 V
b100011 *
b100011 W
1#
#3600
0#
#3650
1c
12
b1111 [
b1111 !
b1111 F
b111100110011xxx X
b111100110011xxx (
b111100110011xxx Z
b100100 V
b100100 *
b100100 W
1#
#3700
0#
#3750
b0 G
b0 "
b0 ;
b0 J
b0 e
b101000100100011010001010000011110000110 -
b101000100100011010001010000011110000110 @
b101000100100011010001010000011110000110 E
b101000100100011010001010000011110000110 I
b0 5
b0 C
b0xxxx ]
b0xxxx %
b0xxxx A
b10010 [
b10010 !
b10010 F
b10010xxxx0000000 X
b10010xxxx0000000 (
b10010xxxx0000000 Z
b100101 V
b100101 *
b100101 W
1#
#3800
0#
#3850
b100110 V
b100110 *
b100110 W
1#
#3900
0#
#3950
b100111 V
b100111 *
b100111 W
1#
#4000
0#
#4050
b101000 V
b101000 *
b101000 W
1#
#4100
0#
#4150
b101001 V
b101001 *
b101001 W
1#
#4200
0#
#4250
b101010 V
b101010 *
b101010 W
1#
#4300
0#
#4350
b101011 V
b101011 *
b101011 W
1#
#4400
0#
#4450
b101100 V
b101100 *
b101100 W
1#
#4500
0#
#4550
b101101 V
b101101 *
b101101 W
1#
#4600
0#
#4650
b101110 V
b101110 *
b101110 W
1#
#4700
0#
#4750
b101111 V
b101111 *
b101111 W
1#
#4800
0#
#4850
b110000 V
b110000 *
b110000 W
1#
#4900
0#
#4950
b110001 V
b110001 *
b110001 W
1#
#5000
0#
#5050
b110010 V
b110010 *
b110010 W
1#
#5100
0#
#5150
b110011 V
b110011 *
b110011 W
1#
#5200
0#
#5250
b110100 V
b110100 *
b110100 W
1#
#5300
0#
#5350
b110101 V
b110101 *
b110101 W
1#
#5400
0#
#5450
b110110 V
b110110 *
b110110 W
1#
#5500
0#
#5550
b110111 V
b110111 *
b110111 W
1#
#5600
0#
#5650
b111000 V
b111000 *
b111000 W
1#
#5700
0#
#5750
b111001 V
b111001 *
b111001 W
1#
#5800
0#
#5850
b111010 V
b111010 *
b111010 W
1#
#5900
0#
#5950
b111011 V
b111011 *
b111011 W
1#
#6000
0#
#6050
b111100 V
b111100 *
b111100 W
1#
#6100
0#
#6150
b111101 V
b111101 *
b111101 W
1#
#6200
0#
#6250
b111110 V
b111110 *
b111110 W
1#
#6300
0#
#6350
b111111 V
b111111 *
b111111 W
1#
#6400
0#
#6450
b1000100000xxx X
b1000100000xxx (
b1000100000xxx Z
b0 V
b0 *
b0 W
1#
#6500
0#
#6550
xH
x6
b0 =
b0 3
b0 >
b101000100100011010001010000011110000110 :
b101000100100011010001010000011110000110 1
b101000100100011010001010000011110000110 D
b0xx \
b0xx $
b0xx 8
0c
02
1b
10
b1111 e
bx -
bx @
bx E
bx I
b1111 5
b1111 C
b11 ]
b11 %
b11 A
b101 [
b101 !
b101 F
b10100111111xxx X
b10100111111xxx (
b10100111111xxx Z
b1 V
b1 *
b1 W
1#
#6600
0#
#6650
0H
06
bx =
bx 3
bx >
b0 :
b0 1
b0 D
b0 \
b0 $
b0 8
1c
12
0b
00
b0x000 e
b0x000 5
b0x000 C
b0xxxx ]
b0xxxx %
b0xxxx A
b10011 [
b10011 !
b10011 F
b10011xxxxx000000 X
b10011xxxxx000000 (
b10011xxxxx000000 Z
xY
x7
b10 V
b10 *
b10 W
1#
#6700
0#
#6750
b100000000000000000000000000000000000 G
b100000000000000000000000000000000000 "
b100000000000000000000000000000000000 ;
b100000000000000000000000000000000000 J
b100000000000000000000000000000000000 =
b100000000000000000000000000000000000 3
b100000000000000000000000000000000000 >
bx :
bx 1
bx D
0c
02
1b
10
0a
0.
b10xx d
bx ,
bx 9
bx ?
b10xx 4
b10xx B
b1 e
b1000000100100011010001010110011110000000 -
b1000000100100011010001010110011110000000 @
b1000000100100011010001010110011110000000 E
b1000000100100011010001010110011110000000 I
b1 5
b1 C
b0 ]
b0 %
b0 A
b110 [
b110 !
b110 F
b110010000110xx X
b110010000110xx (
b110010000110xx Z
0Y
07
b11 V
b11 *
b11 W
1#
#6800
0#
#6850
xH
x6
b101000100100011010001010000011110000110 :
b101000100100011010001010000011110000110 1
b101000100100011010001010000011110000110 D
1a
1.
b0 d
b101000100100011010001010000011110000110 ,
b101000100100011010001010000011110000110 9
b101000100100011010001010000011110000110 ?
b0 4
b0 B
b0x010 e
bx -
bx @
bx E
bx I
b0x010 5
b0x010 C
b0xxx ]
b0xxx %
b0xxx A
b100 [
b100 !
b100 F
b1000xxxx010000 X
b1000xxxx010000 (
b1000xxxx010000 Z
b100 V
b100 *
b100 W
1#
#6900
0#
#6950
0H
06
b0 G
b0 "
b0 ;
b0 J
bx =
bx 3
bx >
b0 :
b0 1
b0 D
1c
12
0b
00
b0x001 e
b0x001 5
b0x001 C
b0xxxx ]
b0xxxx %
b0xxxx A
b10011 [
b10011 !
b10011 F
b10011xxxxx001100 X
b10011xxxxx001100 (
b10011xxxxx001100 Z
xY
x7
b101 V
b101 *
b101 W
1#
#7000
0#
#7050
xH
x6
b0 =
b0 3
b0 >
b101000100100011010001010000011110000110 :
b101000100100011010001010000011110000110 1
b101000100100011010001010000011110000110 D
b1 \
b1 $
b1 8
0c
02
1b
10
b0x010 e
b0x010 5
b0x010 C
b100 [
b100 !
b100 F
b100xxxxx010001 X
b100xxxxx010001 (
b100xxxxx010001 Z
0Y
07
b110 V
b110 *
b110 W
1#
#7100
0#
#7150
0H
06
bx =
bx 3
bx >
b0 :
b0 1
b0 D
b0 \
b0 $
b0 8
1c
12
0b
00
b0x001 e
b0x001 5
b0x001 C
b10011 [
b10011 !
b10011 F
b10011xxxxx001111 X
b10011xxxxx001111 (
b10011xxxxx001111 Z
xY
x7
b111 V
b111 *
b111 W
1#
#7200
0#
#7250
xH
x6
b0 =
b0 3
b0 >
b101000100100011010001010000011110000110 :
b101000100100011010001010000011110000110 1
b101000100100011010001010000011110000110 D
b10 \
b10 $
b10 8
0c
02
1b
10
b0x010 e
b0x010 5
b0x010 C
b100 [
b100 !
b100 F
b100xxxxx010010 X
b100xxxxx010010 (
b100xxxxx010010 Z
0Y
07
b1000 V
b1000 *
b1000 W
1#
#7300
0#
#7350
0H
06
bx =
bx 3
bx >
b0 :
b0 1
b0 D
b0 \
b0 $
b0 8
1c
12
0b
00
b10011 [
b10011 !
b10011 F
b10011xxxxx010010 X
b10011xxxxx010010 (
b10011xxxxx010010 Z
xY
x7
b1001 V
b1001 *
b1001 W
1#
#7400
0#
#7450
xH
x6
b0 =
b0 3
b0 >
b101000100100011010001010000011110000110 :
b101000100100011010001010000011110000110 1
b101000100100011010001010000011110000110 D
b11 \
b11 $
b11 8
0c
02
1b
10
b100 [
b100 !
b100 F
b100xxxxx010011 X
b100xxxxx010011 (
b100xxxxx010011 Z
0Y
07
b1010 V
b1010 *
b1010 W
1#
#7500
0#
#7550
0H
06
bx =
bx 3
bx >
b0 :
b0 1
b0 D
b0 \
b0 $
b0 8
1c
12
0b
00
b10011 [
b10011 !
b10011 F
b10011xxxxx010101 X
b10011xxxxx010101 (
b10011xxxxx010101 Z
xY
x7
b1011 V
b1011 *
b1011 W
1#
#7600
0#
#7650
1H
16
b0xxx0 :
b0xxx0 1
b0xxx0 D
b0 =
b0 3
b0 >
b0xxx0 \
b0xxx0 $
b0xxx0 8
0c
02
0a
0.
b0xxxx e
b0xxxx 5
b0xxxx C
b0 ]
b0 %
b0 A
b1011 [
b1011 !
b1011 F
b1011xxxxxxx0010 X
b1011xxxxxxx0010 (
b1011xxxxxxx0010 Z
0Y
07
b1100 V
b1100 *
b1100 W
1#
#7700
0#
#7750
0H
06
b0 :
b0 1
b0 D
bx =
bx 3
bx >
b0 \
b0 $
b0 8
1c
12
1a
1.
b0x011 e
b0x011 5
b0x011 C
b0xxxx ]
b0xxxx %
b0xxxx A
b10011 [
b10011 !
b10011 F
b10011xxxxx011000 X
b10011xxxxx011000 (
b10011xxxxx011000 Z
1Y
17
b1101 V
b1101 *
b1101 W
1#
#7800
0#
#7850
b0x000 e
b0x000 5
b0x000 C
b10010 [
b10010 !
b10010 F
b10010xxxxx000000 X
b10010xxxxx000000 (
b10010xxxxx000000 Z
0Y
07
b1110 V
b1110 *
b1110 W
1#
#7900
0#
#7950
1H
16
b0 =
b0 3
b0 >
b101000100100011010001010000011110000110 :
b101000100100011010001010000011110000110 1
b101000100100011010001010000011110000110 D
0c
02
1b
10
b0xxx0 e
b0xxx0 5
b0xxx0 C
b1100 [
b1100 !
b1100 F
b1100xxxxxxx0010 X
b1100xxxxxxx0010 (
b1100xxxxxxx0010 Z
b1111 V
b1111 *
b1111 W
1#
#8000
0#
#8050
0H
06
bx =
bx 3
bx >
b0 :
b0 1
b0 D
1c
12
0b
00
b0x011 e
b0x011 5
b0x011 C
b10011 [
b10011 !
b10011 F
b10011xxxxx011010 X
b10011xxxxx011010 (
b10011xxxxx011010 Z
1Y
17
b10000 V
b10000 *
b10000 W
1#
#8100
0#
#8150
b0x000 e
b0x000 5
b0x000 C
b0xxx ]
b0xxx %
b0xxx A
b10010 [
b10010 !
b10010 F
b100100xxxx000000 X
b100100xxxx000000 (
b100100xxxx000000 Z
0Y
07
b10001 V
b10001 *
b10001 W
1#
#8200
0#
#8250
1H
16
b0 =
b0 3
b0 >
b101000100100011010001010000011110000110 :
b101000100100011010001010000011110000110 1
b101000100100011010001010000011110000110 D
0c
02
1b
10
b0xxx0 e
b0xxx0 5
b0xxx0 C
b0xxxx ]
b0xxxx %
b0xxxx A
b1101 [
b1101 !
b1101 F
b1101xxxxxxx0010 X
b1101xxxxxxx0010 (
b1101xxxxxxx0010 Z
b10010 V
b10010 *
b10010 W
1#
#8300
0#
#8350
0H
06
bx =
bx 3
bx >
b0 :
b0 1
b0 D
1c
12
0b
00
b0x011 e
b0x011 5
b0x011 C
b10011 [
b10011 !
b10011 F
b10011xxxxx011100 X
b10011xxxxx011100 (
b10011xxxxx011100 Z
1Y
17
b10011 V
b10011 *
b10011 W
1#
#8400
0#
#8450
b0x000 e
b0x000 5
b0x000 C
b10010 [
b10010 !
b10010 F
b10010xxxxx000000 X
b10010xxxxx000000 (
b10010xxxxx000000 Z
0Y
07
b10100 V
b10100 *
b10100 W
1#
#8500
0#
#8550
1H
16
b0xxx0 e
b0xxx0 5
b0xxx0 C
b1110 [
b1110 !
b1110 F
b1110xxxxxxx0010 X
b1110xxxxxxx0010 (
b1110xxxxxxx0010 Z
b10101 V
b10101 *
b10101 W
1#
#8600
0#
#8650
0H
06
b0x011 e
b0x011 5
b0x011 C
b10011 [
b10011 !
b10011 F
b10011xxxxx011110 X
b10011xxxxx011110 (
b10011xxxxx011110 Z
1Y
17
b10110 V
b10110 *
b10110 W
1#
#8700
0#
#8750
b0x000 e
b0x000 5
b0x000 C
b0xx ]
b0xx %
b0xx A
b10010 [
b10010 !
b10010 F
b1001000xxx000000 X
b1001000xxx000000 (
b1001000xxx000000 Z
0Y
07
b10111 V
b10111 *
b10111 W
1#
#8800
0#
#8850
bx :
bx 1
bx D
b0 =
b0 3
b0 >
0c
02
1b
10
0a
0.
b0xxx d
bx ,
bx 9
bx ?
b0xxx 4
b0xxx B
b10 e
b0 &
b0 <
b0 S
b0 -
b0 @
b0 E
b0 I
b10 5
b10 C
b0 ]
b0 %
b0 A
b111 [
b111 !
b111 F
b11101000100xxx X
b11101000100xxx (
b11101000100xxx Z
b11000 V
b11000 *
b11000 W
1#
#8900
0#
#8950
b0 :
b0 1
b0 D
bx =
bx 3
bx >
1c
12
0b
00
1a
1.
b0 d
b101000100100011010001010000011110000110 ,
b101000100100011010001010000011110000110 9
b101000100100011010001010000011110000110 ?
b0 4
b0 B
b0x100 e
bx &
bx <
bx S
bx -
bx @
bx E
bx I
b0x100 5
b0x100 C
b0xxxx ]
b0xxxx %
b0xxxx A
b10010 [
b10010 !
b10010 F
b10010xxxxx100000 X
b10010xxxxx100000 (
b10010xxxxx100000 Z
b11001 V
b11001 *
b11001 W
1#
#9000
0#
#9050
b0xx000000000000000 :
b0xx000000000000000 1
b0xx000000000000000 D
b0 =
b0 3
b0 >
b0xx000000000000000 \
b0xx000000000000000 $
b0xx000000000000000 8
0c
02
0a
0.
b100x e
b100x 5
b100x C
b0 ]
b0 %
b0 A
b1000 [
b1000 !
b1000 F
b100001000100xxx X
b100001000100xxx (
b100001000100xxx Z
b11010 V
b11010 *
b11010 W
1#
#9100
0#
#9150
b0 :
b0 1
b0 D
bx =
bx 3
bx >
b0 \
b0 $
b0 8
1c
12
1a
1.
b0x100 e
b0x100 5
b0x100 C
b0xxxx ]
b0xxxx %
b0xxxx A
b10010 [
b10010 !
b10010 F
b10010xxxxx100000 X
b10010xxxxx100000 (
b10010xxxxx100000 Z
b11011 V
b11011 *
b11011 W
1#
#9200
0#
